<svg width="540" height="81" viewBox="0 0 540 81" fill="none" xmlns="http://www.w3.org/2000/svg">
<path d="M476.678 68.6182C474.694 68.7405 475.585 71.2903 477.778 71.1554C479.923 71.0238 478.791 68.4892 476.678 68.6188V68.6182Z" fill="white"/>
<path d="M475.841 67.044C472.311 67.044 469.45 69.8677 469.45 73.3509C469.45 76.834 472.311 79.6578 475.841 79.6578C479.371 79.6578 482.232 76.834 482.232 73.3509C482.232 69.8677 479.371 67.044 475.841 67.044ZM475.841 78.997C473.528 78.997 471.442 77.6224 470.557 75.5132C469.671 73.4041 470.16 70.9758 471.796 69.3612C473.431 67.7466 475.891 67.264 478.029 68.1375C480.166 69.0109 481.56 71.0689 481.56 73.3522C481.56 76.4698 478.999 78.9964 475.841 78.997ZM475.648 62.6409C474.131 63.7722 474.395 65.5085 474.395 65.5085C474.395 65.5085 473.441 63.0657 472.202 61.572C472.036 63.4944 472.646 66.0416 472.646 66.0416C472.646 66.0416 471.871 64.4622 469.97 64.3738C471.546 65.2679 472.158 66.8785 472.298 67.3106C473.237 66.7389 474.311 66.4178 475.414 66.38C475.29 65.9778 474.848 64.2828 475.648 62.6409ZM442.865 73.9691V75.2892H442.309V71.8885H443.48C443.877 71.8885 444.176 71.9816 444.376 72.1677C444.575 72.3538 444.676 72.6097 444.678 72.9334C444.678 73.2552 444.575 73.5084 444.371 73.6926C444.165 73.8767 443.869 73.9691 443.482 73.9691H442.865ZM444.109 72.9334C444.109 72.7407 444.055 72.5944 443.946 72.4927C443.837 72.3917 443.662 72.3412 443.422 72.3412H442.865V73.5211H443.422C443.88 73.5211 444.109 73.3256 444.109 72.9334ZM446.975 75.2892L446.116 73.9312H445.721V75.2892H445.164V71.8885H446.38C446.773 71.8885 447.071 71.9829 447.275 72.1723C447.479 72.3618 447.581 72.6124 447.58 72.9241C447.58 73.1894 447.505 73.4074 447.353 73.5795C447.202 73.751 446.984 73.8601 446.699 73.9066L447.605 75.2892H446.975ZM445.721 73.541H446.334C446.784 73.541 447.008 73.3449 447.008 72.9534C447.008 72.7673 446.954 72.6217 446.845 72.5173C446.736 72.413 446.565 72.3604 446.334 72.3604H445.721V73.5403V73.541ZM450.138 74.552H448.683L448.419 75.2892H447.824L449.094 71.9417H449.733L450.997 75.2892H450.402L450.138 74.552ZM449.981 74.1286L449.41 72.5399L448.839 74.1286H449.982H449.981ZM453.808 72.1577C454.082 72.3571 454.274 72.6456 454.351 72.9727H453.765C453.692 72.7919 453.563 72.6383 453.396 72.5339C453.214 72.4216 453.003 72.3644 452.789 72.3698C452.586 72.3671 452.386 72.4183 452.21 72.5193C452.038 72.619 451.899 72.7666 451.81 72.9427C451.71 73.1442 451.662 73.3662 451.669 73.5902C451.662 73.8222 451.712 74.0515 451.815 74.2602C451.906 74.4397 452.049 74.5879 452.227 74.6863C452.416 74.788 452.629 74.8392 452.845 74.8352C453.115 74.8399 453.377 74.7448 453.581 74.5693C453.785 74.3945 453.909 74.1545 453.952 73.8488H452.686V73.4439H454.418V73.9691C454.382 74.2137 454.29 74.447 454.148 74.6511C454.004 74.8571 453.812 75.0247 453.587 75.1403C453.34 75.2653 453.066 75.3278 452.789 75.3231C452.477 75.3298 452.17 75.2527 451.9 75.1018C451.646 74.9569 451.439 74.7441 451.305 74.4869C451.025 73.9199 451.025 73.2572 451.305 72.6902C451.439 72.4349 451.645 72.2222 451.897 72.0786C452.168 71.929 452.474 71.8526 452.783 71.8592C453.194 71.8592 453.536 71.959 453.809 72.1584L453.808 72.1577ZM458.348 71.9417V75.2892H457.787V72.7799L456.806 75.2892H456.318L455.331 72.7799V75.2892H454.775V71.9417H455.449L456.572 74.6145L457.674 71.9417H458.348ZM461.072 74.552H459.619L459.355 75.2892H458.758L460.027 71.9417H460.666L461.931 75.2892H461.336L461.072 74.552ZM460.915 74.1286L460.344 72.5399L459.773 74.1286H460.915ZM464.313 71.8885V72.3312H463.351V75.2892H462.789V72.3312H461.833V71.8885H464.313ZM465.167 71.8885V75.2892H464.611V71.8885H465.167ZM468.315 72.1723C468.598 72.3884 468.797 72.6921 468.881 73.0351H468.291C468.215 72.8364 468.08 72.6656 467.903 72.5459C467.71 72.4209 467.482 72.3578 467.252 72.3651C467.057 72.3618 466.867 72.4136 466.702 72.514C466.537 72.6184 466.405 72.7659 466.321 72.9401C466.136 73.3509 466.136 73.8202 466.321 74.2316C466.405 74.4058 466.537 74.554 466.702 74.6577C466.867 74.7581 467.057 74.8106 467.251 74.8073C467.482 74.8139 467.71 74.7515 467.902 74.6265C468.079 74.5082 468.215 74.3393 468.291 74.1426H468.881C468.798 74.4842 468.598 74.7873 468.315 75.0021C468.036 75.2128 467.684 75.3178 467.261 75.3178C466.958 75.3238 466.659 75.248 466.397 75.0984C466.148 74.9542 465.946 74.7415 465.816 74.4869C465.543 73.9179 465.543 73.2585 465.816 72.6902C465.947 72.4349 466.149 72.2215 466.397 72.0753C466.659 71.9251 466.958 71.8486 467.262 71.8539C467.684 71.8539 468.035 71.9603 468.315 72.173V72.1723Z" fill="white"/>
<path d="M471.508 73.9691V75.2893H470.951V71.8885H472.122C472.519 71.8885 472.818 71.9816 473.018 72.1677C473.219 72.3539 473.32 72.6098 473.32 72.9335C473.32 73.2552 473.218 73.5085 473.013 73.6926C472.808 73.8767 472.512 73.9691 472.124 73.9691H471.508ZM472.754 72.9335C472.754 72.7407 472.699 72.5945 472.59 72.4928C472.481 72.3917 472.306 72.3412 472.065 72.3412H471.507V73.5211H472.064C472.524 73.5211 472.754 73.3257 472.754 72.9335ZM474.275 74.8605H475.466V75.2893H473.718V71.8885H474.275V74.8605ZM478.014 74.5521H476.559L476.296 75.2893H475.7L476.97 71.9417H477.609L478.873 75.2893H478.278L478.014 74.5521ZM477.858 74.1287L477.287 72.54L476.715 74.1287H477.858H477.858ZM481.107 71.8885L479.96 74.0509V75.2893H479.4V74.0509L478.248 71.8885H478.893L479.684 73.4639L480.475 71.8885H481.107Z" fill="white"/>
<path d="M95.496 65.8863C95.3996 65.7886 95.3165 65.7953 95.2367 65.7953H90.0745C89.4729 65.7953 88.9299 65.9827 88.424 66.2759C87.4136 66.8608 86.733 67.6718 86.3946 68.7819C85.8795 70.4742 85.3085 72.152 84.7308 73.8258C84.1804 75.4211 85.2088 76.696 86.8327 76.5857C87.7048 76.5265 88.5849 76.5797 89.4616 76.5724C89.7342 76.5704 90.0047 76.5671 90.2779 76.49C91.6851 76.0911 92.5566 75.1718 93.0252 73.8823C93.3695 72.933 93.6693 71.9679 93.9711 71.0054C94.0861 70.6398 94.249 70.2841 94.3048 69.9046C94.138 69.8015 93.9718 69.8487 93.8149 69.8474C92.9548 69.8421 92.0946 69.8388 91.2338 69.8481C90.9294 69.8521 90.5711 69.7331 90.3331 69.9066C90.0991 70.0774 90.1038 70.4344 90.0107 70.7109C89.8133 71.2958 89.6232 71.8834 89.4244 72.487C89.9017 72.5821 90.355 72.4598 90.8057 72.5734C90.6721 72.9769 90.5432 73.3425 90.4321 73.7134C90.3923 73.8464 90.3497 73.9374 90.1815 73.9368C89.3241 73.9328 88.4672 73.9348 87.5532 73.9348C87.738 73.3671 87.9035 72.8526 88.0717 72.3394C88.4592 71.1589 88.8481 69.979 89.2376 68.7991C89.3573 68.4362 89.3606 68.4355 89.7721 68.4342C90.1456 68.4329 90.5192 68.4342 90.8928 68.4342C92.0448 68.4342 93.1974 68.4362 94.35 68.4309C94.4776 68.4302 94.6385 68.4974 94.705 68.2893C94.9629 67.4783 95.2367 66.6714 95.496 65.8863ZM97.092 76.5618C97.7248 76.5697 98.3769 76.6681 98.9851 76.5239C100.565 76.1503 101.696 75.2416 102.21 73.7241C102.757 72.1068 103.283 70.4822 103.813 68.8583C103.947 68.4462 104.061 68.034 104.082 67.5913C104.141 66.3616 103.062 65.5932 102.049 65.6185C101.109 65.6417 100.168 65.6218 99.2271 65.6251C99.0496 65.6251 98.8734 65.6251 98.6966 65.6703C97.0907 66.0791 95.9905 67.009 95.4727 68.5379C95.2534 69.1847 95.0433 69.8341 94.8333 70.4835C94.4557 71.6501 94.0542 72.8107 93.7132 73.9866C93.2665 75.5255 94.368 76.6016 95.6329 76.5644C96.1188 76.5511 96.6054 76.5624 97.092 76.5624V76.5618ZM85.5165 67.5767C86.2604 66.1835 87.3924 65.2309 88.9571 64.7517C89.1167 64.7025 89.3214 64.7689 89.4397 64.6001H102.591C102.62 64.6692 102.686 64.6686 102.748 64.6819C104.014 64.9571 104.819 65.6949 105.176 66.8914C105.242 67.1154 105.199 67.3587 105.317 67.5714C105.258 68.1703 105.158 68.7579 104.95 69.3329C104.688 70.0608 104.49 70.8093 104.237 71.5411C103.854 72.6512 103.566 73.7919 103.095 74.8747C102.361 76.1237 101.324 77.035 99.9004 77.519C99.4085 77.6858 98.906 77.7729 98.3802 77.7722C94.4384 77.7669 90.4973 77.7549 86.5562 77.7775C85.1735 77.7855 83.5995 76.8615 83.3814 75.1964C83.3668 75.0894 83.3316 74.9844 83.3057 74.8787C83.3236 74.1448 83.543 73.4549 83.7783 72.7635C84.3666 71.0373 84.8817 69.2884 85.5165 67.5767Z" fill="white"/>
<path d="M103.095 74.8748C103.566 73.792 103.854 72.6513 104.237 71.5405C104.49 70.8093 104.688 70.0609 104.95 69.3337C105.158 68.758 105.258 68.1704 105.317 67.5708C105.755 67.5742 106.193 67.5722 106.629 67.5815C107.216 67.5934 107.674 67.8407 108.052 68.2681C108.222 68.4609 108.263 68.7135 108.436 68.8969V70.0177C108.146 70.4371 108.115 70.9403 107.957 71.4023C107.794 71.8869 107.682 72.3867 107.531 72.8753C107.123 74.1881 105.816 74.922 104.697 74.8774C104.164 74.8562 103.629 74.8741 103.095 74.8748ZM78.1035 70.2158H79.4383C79.5579 70.2158 79.6523 70.1971 79.6962 70.0609C79.8132 69.6966 79.9441 69.337 80.0784 68.9508C79.6051 68.8903 79.171 68.9355 78.7403 68.9176C78.5695 68.9109 78.517 69.0239 78.4744 69.1396C78.3548 69.4719 78.2431 69.8083 78.1035 70.2158ZM81.0728 73.1937C81.3892 73.1937 81.679 73.1837 81.9675 73.197C82.1856 73.207 82.2799 73.1219 82.3351 72.9212C82.4946 72.3382 82.6861 71.7632 82.8456 71.1809C83.0204 70.5428 82.7113 70.1386 82.0367 70.1134C81.6644 70.1001 81.2902 70.0968 80.9179 70.1134C80.196 70.1466 79.6815 70.5215 79.4329 71.1404C79.173 71.7852 79.0175 72.4685 78.8114 73.1512C79.1059 73.2283 79.3831 73.1631 79.6503 73.1977C79.9235 73.2323 80.0179 73.098 80.0791 72.878C80.2067 72.414 80.3469 71.954 80.4885 71.494C80.5284 71.3644 80.5616 71.2135 80.7611 71.2235C81.0489 71.2388 81.3394 71.1882 81.6518 71.2634L81.0735 73.1937H81.0728ZM67.7531 68.8119C67.4221 68.8119 67.1781 68.8338 66.9402 68.8065C66.6543 68.7733 66.5433 68.8943 66.4656 69.1389C66.1498 70.13 65.8022 71.1131 65.4964 72.1069C65.39 72.4525 65.2126 72.7862 65.1933 73.193C66.2768 73.193 67.3284 73.1904 68.3806 73.1957C68.5674 73.197 68.6312 73.1026 68.6784 72.9544C68.804 72.5542 68.9549 72.1614 69.0673 71.7579C69.3232 70.8379 69.5319 70.9935 68.4052 70.9722C68.2085 70.9689 68.1121 71.0553 68.0596 71.2268C67.9904 71.4488 67.9014 71.6655 67.8349 71.8889C67.7997 72.0058 67.7551 72.0883 67.6109 72.0803C67.3244 72.0637 67.0326 72.1202 66.7069 72.0304L67.7531 68.8119ZM74.9434 70.9855L75.6387 68.8119C75.2831 68.8119 74.9939 68.8205 74.7048 68.8092C74.524 68.8019 74.4548 68.8757 74.4043 69.0352C74.1863 69.7305 73.9556 70.4231 73.725 71.1151C73.6186 71.4342 73.7256 71.6948 73.9543 71.9194C74.0926 72.055 74.3046 72.0617 74.4854 72.1468C74.4522 72.5057 74.2328 72.8122 74.2102 73.1784C74.2873 73.1837 74.3511 73.1957 74.4136 73.1917C74.7187 73.1758 75.0837 73.3047 75.311 73.1352C75.4911 73.0009 75.5211 72.6699 75.5968 72.42C75.6567 72.2206 75.7584 72.1169 75.9844 72.0663C76.5952 71.9301 77.008 71.5631 77.2028 70.9842C77.3557 70.5275 77.5172 70.0735 77.6581 69.6142C77.934 68.7102 78.0982 68.8205 77.0107 68.8099C76.8213 68.8085 76.7195 68.8697 76.665 69.0558C76.5527 69.4427 76.4124 69.8216 76.2848 70.2045C75.9963 71.0719 75.9963 71.0726 75.0351 71.0267C75.0205 71.026 75.0059 71.0134 74.9434 70.9855ZM61.3253 73.1937C61.5965 73.1937 61.885 73.1884 62.1734 73.1957C62.3423 73.1997 62.4207 73.1472 62.4772 72.9783C62.5656 72.7151 62.5656 72.3748 62.783 72.2106C63.0223 72.0298 63.3766 72.1614 63.6797 72.1448C64.6023 72.0962 65.1541 71.7081 65.4479 70.8778C65.5562 70.5707 65.6599 70.2616 65.7443 69.9472C65.9311 69.2519 65.5881 68.8238 64.837 68.8139C64.2374 68.8059 63.6372 68.8305 63.0396 68.8039C62.7305 68.7906 62.6248 68.9102 62.5424 69.1721C62.1595 70.3846 61.756 71.5911 61.3565 72.7982C61.318 72.9152 61.2535 73.0242 61.3253 73.1937ZM69.0686 73.1571C69.3877 73.2236 69.6788 73.1724 69.9646 73.197C70.1614 73.213 70.2631 73.1332 70.317 72.963C70.3814 72.7557 70.4592 72.5522 70.519 72.3442C70.5523 72.2272 70.5968 72.1381 70.7397 72.1454C71.0269 72.1601 71.318 72.0996 71.6078 72.188C71.6158 72.5403 71.3659 72.8274 71.3865 73.1937C71.6736 73.1937 71.9482 73.1844 72.222 73.1964C72.4341 73.2057 72.5331 73.1332 72.5969 72.9285C72.9114 71.9214 73.253 70.9217 73.5708 69.916C73.7682 69.2918 73.4205 68.8358 72.7432 68.8145C72.3869 68.8026 72.0293 68.7979 71.673 68.8145C70.9564 68.8504 70.4147 69.2067 70.1774 69.8302C69.7639 70.917 69.4375 72.0344 69.0686 73.1571ZM85.5165 67.5768C84.881 69.2885 84.3665 71.0373 83.7782 72.7636C83.5429 73.4549 83.3236 74.1449 83.3056 74.8788C79.1491 74.8774 74.9933 74.8748 70.8368 74.8741C67.4759 74.8728 64.1151 74.8741 60.7543 74.8721C60.5283 74.8721 60.2969 74.8761 60.0763 74.8336C58.8246 74.5929 58.3686 73.6105 58.6032 72.6014C58.8459 71.5585 59.1616 70.5308 59.4607 69.5012C59.8197 68.2601 61.1278 67.5629 62.1861 67.5662C69.9633 67.5894 77.7406 67.5775 85.5165 67.5768ZM101.044 68.4496C100.279 68.4496 99.5846 68.4483 98.89 68.4503C98.442 68.4516 98.444 68.4542 98.3157 68.8484C98.0285 69.7325 97.7367 70.6166 97.4502 71.5013C97.193 72.297 96.9397 73.0933 96.6698 73.9355C97.2455 73.9355 97.7779 73.9422 98.3104 73.9335C98.6161 73.9282 98.9751 74.0432 99.2131 73.8817C99.4524 73.7202 99.4424 73.3552 99.5341 73.078C100.035 71.5631 100.525 70.0456 101.043 68.4496" fill="white"/>
<path d="M101.044 68.4496C100.525 70.0449 100.035 71.5631 99.5341 73.078C99.4424 73.3552 99.4524 73.7201 99.2131 73.8823C98.9751 74.0432 98.6161 73.9289 98.3104 73.9335C97.7786 73.9422 97.2455 73.9355 96.6698 73.9355C96.9397 73.0933 97.193 72.297 97.4502 71.5013C97.7367 70.6166 98.0285 69.7331 98.3157 68.8484C98.444 68.4542 98.442 68.4516 98.89 68.4502C99.5846 68.4482 100.279 68.4502 101.044 68.4502V68.4496ZM70.9843 71.0121C70.999 70.9276 71.0069 70.8658 71.0216 70.806C71.2442 69.8807 71.3373 69.8229 72.3789 69.9685C72.361 70.0283 72.345 70.0868 72.3264 70.1446C72.0366 71.0706 72.0366 71.0706 70.9837 71.0121H70.9843ZM63.1865 71.0333C63.1346 70.8745 63.1858 70.8087 63.2091 70.7362C63.5042 69.8309 63.5036 69.8309 64.5512 69.9645C64.4654 70.2456 64.377 70.5235 64.2972 70.8047C64.2534 70.9589 64.1709 71.0406 63.9928 71.0353C63.7222 71.0267 63.451 71.0333 63.1865 71.0333Z" fill="white"/>
<path d="M249.203 80.1214C250.069 80.1214 250.387 79.6461 250.387 79.1908C250.387 78.0076 248.486 78.4157 248.486 77.7038C248.486 77.4047 248.765 77.2006 249.145 77.2006C249.497 77.2006 249.833 77.3143 250.074 77.5802L250.314 77.291C250.045 77.0105 249.665 76.8443 249.179 76.8443C248.544 76.8443 248.072 77.2053 248.072 77.7278C248.072 78.8578 249.973 78.4018 249.973 79.2187C249.973 79.466 249.79 79.7698 249.218 79.7698C248.831 79.7698 248.464 79.6036 248.212 79.3138L247.971 79.6176C248.236 79.912 248.649 80.1214 249.203 80.1214ZM255.997 80.0636V77.2478H257.018V76.8969H254.583V77.2478H255.598V80.0636H255.997ZM262.705 80.1214C263.576 80.1214 264.019 79.6176 264.019 78.8292V76.8969H263.615V78.8246C263.615 79.4035 263.297 79.7698 262.705 79.7698C262.113 79.7698 261.801 79.4042 261.801 78.8246V76.8969H261.396V78.8339C261.396 79.6129 261.839 80.1214 262.706 80.1214H262.705ZM269.716 79.7126H269.018V77.2478H269.716C270.51 77.2478 270.947 77.7996 270.947 78.4829C270.947 79.1616 270.495 79.7126 269.716 79.7126ZM269.716 80.0636C270.717 80.0636 271.362 79.3856 271.362 78.4829C271.362 77.5855 270.717 76.8969 269.716 76.8969H268.619V80.0636H269.716ZM275.836 80.0636H276.236V76.8969H275.837V80.0636H275.836ZM282.299 79.7698C281.577 79.7698 281.12 79.2181 281.12 78.4829C281.12 77.7417 281.577 77.196 282.299 77.196C283.016 77.196 283.483 77.7417 283.483 78.4829C283.483 79.2187 283.016 79.7698 282.299 79.7698ZM282.299 80.1214C283.247 80.1214 283.897 79.4181 283.897 78.4829C283.897 77.547 283.247 76.8443 282.299 76.8443C281.351 76.8443 280.706 77.547 280.706 78.4829C280.706 79.4181 281.351 80.1214 282.299 80.1214ZM289.406 80.1214C290.272 80.1214 290.589 79.6461 290.589 79.1908C290.589 78.0076 288.689 78.4157 288.689 77.7038C288.689 77.4047 288.968 77.2006 289.348 77.2006C289.7 77.2006 290.036 77.3143 290.277 77.5802L290.517 77.291C290.248 77.0105 289.868 76.8443 289.382 76.8443C288.747 76.8443 288.275 77.2053 288.275 77.7278C288.275 78.8578 290.176 78.4018 290.176 79.2187C290.176 79.466 289.993 79.7698 289.421 79.7698C289.034 79.7698 288.667 79.6036 288.415 79.3138L288.174 79.6176C288.439 79.912 288.852 80.1214 289.406 80.1214ZM279.645 70.2749L279.638 73.7833H275.879L261.989 73.8185H250.737C250.697 73.8212 250.657 73.8219 250.616 73.8219C250.197 73.8219 249.142 73.7368 248.386 72.9484C247.549 72.075 247.529 71.0154 247.531 70.8539L247.533 66.3803C247.523 66.1543 247.519 65.0362 248.378 64.1156C249.086 63.3578 250.193 63.2987 250.515 63.2987L265.969 63.284V69.9326H275.059V63.3372H279.643L279.627 66.4481L284.026 63.3372H290.085L283.764 68.4941L290.151 73.7833H283.89L279.645 70.2749ZM284.877 68.4981L292.065 62.6339H283.797L280.347 65.0741L280.359 62.6346H274.347V69.2286H266.683V62.5814L250.515 62.5941C250.119 62.5941 248.758 62.6698 247.854 63.6383C246.843 64.7225 246.805 66.0007 246.821 66.3949L246.819 70.8499C246.816 71.1078 246.859 72.3787 247.869 73.4323C248.815 74.4194 250.106 74.5258 250.616 74.5258L262.702 74.5231L276.591 74.4872H280.349L280.354 71.7792L283.63 74.4872H292.109L284.877 68.4968V68.4981Z" fill="white"/>
<path d="M261.276 64.0059V66.468H252.079C252.079 66.468 251.803 66.4508 251.636 66.6342C251.478 66.8071 251.491 67.0444 251.491 67.0444V67.382H261.259V69.7923H251.487L251.489 70.122C251.489 70.122 251.498 70.3653 251.645 70.4943C251.848 70.6724 252.036 70.6538 252.036 70.6538H261.277V73.1159H250.717C250.717 73.1159 249.606 73.197 248.904 72.4652C248.223 71.7552 248.244 70.8592 248.244 70.8592L248.245 66.3617C248.245 66.3617 248.177 65.3686 248.902 64.5922C249.485 63.9674 250.543 64.0019 250.543 64.0019L261.277 64.0059H261.276ZM262.031 63.9873H265.258V70.6358H275.166V73.1153H262.031V63.9873ZM284.255 64.0405H288.104L282.651 68.4901L288.193 73.08H284.148L278.934 68.7713L278.926 73.08H275.772V64.0398H278.926L278.908 67.8221L284.255 64.0398" fill="white"/>
<path fill-rule="evenodd" clip-rule="evenodd" d="M344.193 69.8757H340.045L339.424 71.8001C339.217 72.2056 339.113 72.6104 339.113 72.8125C339.113 73.0152 339.217 73.2179 339.321 73.319C339.528 73.4207 339.839 73.5211 340.358 73.6228V73.9265H337.041V73.6228C337.454 73.5211 337.766 73.4207 337.869 73.2173C338.181 72.9142 338.49 72.407 338.802 71.4956L342.43 61.572H342.743L346.37 71.5967C346.578 72.4076 346.888 72.9142 347.096 73.2173C347.408 73.4207 347.717 73.5211 348.133 73.6228V73.9265H343.985V73.6228C344.4 73.5211 344.712 73.5211 344.815 73.319C345.023 73.2173 345.023 73.0152 345.023 72.8125C345.023 72.6104 344.919 72.2049 344.712 71.598L344.194 69.8764L344.193 69.8757ZM343.883 69.2688L342.12 64.4071L340.356 69.2688H343.882H343.883ZM353.109 64.8119L355.598 71.4963L357.982 64.8119H360.574V65.117C360.261 65.117 360.055 65.2167 359.952 65.2167C359.766 65.2965 359.618 65.4414 359.536 65.6222C359.433 65.7239 359.433 65.9259 359.433 66.1294V72.5087C359.433 72.7121 359.433 72.9142 359.536 73.0152C359.64 73.2173 359.744 73.319 359.849 73.4207C360.055 73.5211 360.262 73.5211 360.573 73.5211V73.9265H356.945V73.5211C357.255 73.5211 357.464 73.5211 357.567 73.4207C357.67 73.319 357.775 73.1162 357.878 73.0152C357.981 72.8125 357.981 72.6097 357.981 72.4083V66.128L355.286 73.9252H354.975L352.384 66.5342H352.279V72.0022C352.279 72.4076 352.279 72.6091 352.384 72.8125C352.384 73.0152 352.487 73.2179 352.59 73.319C352.694 73.4207 352.799 73.4207 353.005 73.5211H353.627V73.9265H350.62V73.5211C350.933 73.5211 351.139 73.5211 351.346 73.4207L351.658 73.1162C351.761 72.9142 351.761 72.8125 351.761 72.6104V66.3314C351.761 66.0276 351.761 65.8256 351.658 65.6222C351.554 65.5218 351.45 65.3191 351.346 65.2167C351.139 65.2167 350.932 65.117 350.62 65.117V64.8119H353.109ZM363.372 73.9265V73.5211H363.684C363.787 73.5211 363.891 73.4207 363.994 73.319C364.099 73.2173 364.202 73.0152 364.306 72.8125C364.409 72.6104 364.617 72.3066 364.72 71.9018L367.312 64.5088H367.519L370.422 72.407C370.526 72.7121 370.63 72.9142 370.733 73.0145C370.836 73.2173 370.941 73.319 371.045 73.42C371.147 73.42 371.251 73.5211 371.356 73.5211H371.666V73.9265H368.452V73.5211H368.867L369.075 73.319C369.075 73.319 369.178 73.2173 369.178 73.1162C369.178 73.0152 369.178 72.8125 369.075 72.7121C369.075 72.6104 368.971 72.407 368.971 72.3066L368.452 71.0915H365.653L365.239 72.3059C365.239 72.407 365.135 72.5087 365.135 72.6104V72.9142C365.135 73.0152 365.135 73.1162 365.239 73.2173C365.246 73.3263 365.334 73.4127 365.446 73.4207C365.446 73.4207 365.55 73.5211 365.653 73.5211H365.86V73.9265H363.372ZM365.86 70.4833H368.245L367.001 67.1417L365.86 70.4833ZM379.857 64.8119L379.96 66.939H379.649C379.649 66.6359 379.546 66.3321 379.546 66.1294C379.442 65.9259 379.338 65.8256 379.234 65.6222C379.027 65.5218 378.923 65.5218 378.819 65.4201H377.058V72.0022C377.058 72.2049 377.058 72.4076 377.161 72.6091C377.161 72.8125 377.161 73.0152 377.264 73.1169C377.368 73.2173 377.472 73.319 377.678 73.4207C377.783 73.5211 377.991 73.5211 378.301 73.5211V73.9265H374.466V73.5211C374.778 73.5211 374.984 73.5211 375.192 73.4207L375.503 73.1162C375.607 73.0152 375.607 72.8125 375.607 72.6104C375.709 72.407 375.709 72.2049 375.709 72.0028V65.4194H374.569C374.258 65.4194 374.05 65.4194 373.843 65.5211C373.636 65.5211 373.532 65.6215 373.428 65.8242C373.299 65.9632 373.225 66.1433 373.221 66.3301C373.117 66.5335 373.117 66.7356 373.117 66.9377H372.807L372.91 64.8112H379.857V64.8119ZM386.802 73.9265H383.069V73.5211C383.382 73.5211 383.589 73.5211 383.691 73.4207C383.899 73.4207 384.003 73.319 384.003 73.1162C384.107 73.0152 384.209 72.9142 384.209 72.7121V66.128C384.209 65.9259 384.209 65.7239 384.107 65.6228C384.003 65.4201 383.899 65.3191 383.796 65.2174C383.588 65.2174 383.381 65.117 383.069 65.117V64.8119H386.802V65.117C386.491 65.117 386.284 65.2167 386.076 65.2167C385.973 65.3191 385.869 65.4201 385.765 65.6222C385.662 65.7239 385.662 65.9259 385.662 66.1294V72.7108C385.662 72.9128 385.765 73.0145 385.765 73.1149C385.869 73.3183 385.973 73.4194 386.179 73.4194C386.284 73.5204 386.492 73.5204 386.802 73.5204V73.9259H386.802V73.9265ZM397.688 67.7493H397.375C397.375 67.6482 397.272 67.5465 397.272 67.3445C397.272 67.2428 397.169 67.1417 397.064 66.939C397.064 66.8379 396.961 66.7362 396.858 66.5342C396.858 66.4325 396.754 66.3314 396.65 66.1287C396.443 66.0276 396.339 65.8256 396.132 65.7239C395.924 65.6222 395.82 65.4201 395.613 65.4201L394.992 65.117H394.37C394.058 65.117 393.644 65.2167 393.333 65.4201C393.021 65.6222 392.711 65.8256 392.503 66.2311C392.193 66.6359 391.985 67.0407 391.881 67.5465C391.778 68.0531 391.673 68.6613 391.673 69.2682C391.673 69.8757 391.778 70.3822 391.881 70.8881C391.881 71.2936 392.088 71.6991 392.193 72.0028C392.399 72.3066 392.503 72.5087 392.711 72.7121C392.918 72.9142 393.125 73.1162 393.333 73.2173C393.539 73.319 393.747 73.4207 393.954 73.4207C394.162 73.5211 394.369 73.5211 394.576 73.5211C394.888 73.5211 395.198 73.5211 395.51 73.319C395.897 73.194 396.251 72.9866 396.546 72.7121C396.65 72.6104 396.754 72.407 396.858 72.3066C396.961 72.2049 396.961 72.1039 397.064 72.0022C397.169 71.8001 397.272 71.6984 397.272 71.5967C397.375 71.3946 397.375 71.2936 397.479 71.0915L397.79 71.2936C397.687 71.3946 397.687 71.5967 397.583 71.6991L397.272 72.3059C397.169 72.5087 397.064 72.7114 396.858 72.9142C396.65 73.2173 396.443 73.319 396.236 73.5211C395.924 73.7245 395.613 73.8255 395.302 73.9265C394.992 74.1293 394.681 74.1293 394.265 74.1293C393.644 74.1293 393.228 74.0276 392.711 73.8255C392.219 73.5456 391.766 73.2053 391.363 72.8125C391.052 72.407 390.741 71.9018 390.429 71.3946C390.217 70.7744 390.112 70.125 390.119 69.4709C390.119 68.7616 390.222 68.1548 390.429 67.5465C390.637 66.9396 390.949 66.4325 391.363 65.9259C391.673 65.5218 392.193 65.2174 392.606 64.9136C393.126 64.7115 393.643 64.5081 394.265 64.5081C394.68 64.5081 394.992 64.6098 395.302 64.7115L395.924 65.0153C396.028 65.0153 396.132 65.117 396.235 65.117C396.289 65.1741 396.363 65.21 396.443 65.2167H396.546L396.65 65.3191C396.65 65.3191 396.65 65.2174 396.754 65.2174C396.754 65.2174 396.858 65.2174 396.858 65.117C396.961 65.117 396.961 65.0153 396.961 64.9136C397.064 64.8119 397.064 64.7115 397.064 64.5081H397.375L397.687 67.7493H397.688ZM336.627 76.6612H337.144V79.5979H336.626V76.6612H336.627ZM342.743 76.6612H343.054L343.779 78.6873V76.6612H344.194V79.5979H343.779L343.054 77.7766V78.079C343.157 78.1801 343.157 78.2818 343.157 78.3822V79.5979H342.742V76.6612H342.743ZM349.793 76.6612H350.207C350.31 76.6612 350.414 76.6612 350.519 76.7629H350.725C350.725 76.7629 350.829 76.7629 350.933 76.8646C350.933 76.8646 351.036 76.965 351.036 77.0667C351.14 77.0667 351.14 77.1677 351.244 77.2688V78.9904C351.14 79.1925 351.14 79.2942 351.036 79.2942C351.036 79.3959 350.933 79.4976 350.933 79.4976C350.829 79.4976 350.725 79.5973 350.725 79.5973H349.793V76.6612ZM350.31 79.2942H350.519C350.621 79.2942 350.621 79.1925 350.725 79.1925V77.1677C350.621 77.1677 350.621 77.0667 350.519 77.0667H350.206V79.2942H350.31ZM356.738 76.6619H357.152V79.0921C357.152 79.1925 357.256 79.1925 357.256 79.1925C357.256 79.2942 357.256 79.2942 357.361 79.2942H357.567L357.671 79.1925V76.6612H358.189V78.7876C358.189 78.8893 358.086 78.9904 358.086 79.0921C358.086 79.1925 358.086 79.2942 357.982 79.3959C357.982 79.3959 357.982 79.4976 357.879 79.4976C357.879 79.5973 357.775 79.5973 357.775 79.5973C357.671 79.5973 357.671 79.6996 357.567 79.6996H357.256L357.152 79.5979C357.049 79.5979 357.049 79.5979 356.946 79.4976L356.841 79.3959C356.841 79.2942 356.738 79.1925 356.738 79.0921V76.6612V76.6619ZM363.58 79.0921V78.8893C363.58 78.7876 363.685 78.7876 363.685 78.6873H363.995V79.0921L364.099 79.1925C364.099 79.2942 364.099 79.2942 364.202 79.2942H364.513C364.513 79.1925 364.617 79.1925 364.617 79.0921C364.617 78.9904 364.617 78.9904 364.513 78.8893V78.6873C364.41 78.6873 364.41 78.5856 364.41 78.5856L363.891 77.978C363.788 77.877 363.788 77.7753 363.685 77.6736C363.685 77.5732 363.58 77.4715 363.58 77.3698C363.58 77.2688 363.685 77.1677 363.685 77.0667C363.685 76.965 363.788 76.965 363.788 76.8646C363.891 76.7629 363.891 76.7629 363.995 76.7629C364.099 76.6612 364.202 76.6612 364.306 76.6612C364.41 76.6612 364.513 76.6612 364.617 76.7629C364.721 76.7629 364.825 76.8646 364.825 76.8646C364.928 76.965 364.928 76.965 364.928 77.0667C364.988 77.1185 365.024 77.191 365.032 77.2688V77.4715C364.928 77.5732 364.928 77.5732 364.928 77.6736H364.617V77.4715C364.617 77.3698 364.617 77.2688 364.513 77.1677C364.513 77.0667 364.41 77.0667 364.306 77.0667H364.099V77.5732C364.202 77.5732 364.202 77.6736 364.202 77.6736L364.721 78.2811C364.825 78.3822 364.928 78.4839 364.928 78.5856C365.001 78.7085 365.036 78.8488 365.032 78.991C365.032 79.0921 365.032 79.1925 364.928 79.2942C364.928 79.3959 364.928 79.3959 364.825 79.4976C364.721 79.4976 364.721 79.5973 364.617 79.5973C364.513 79.6996 364.41 79.6996 364.306 79.6996C364.202 79.6996 364.099 79.6996 363.995 79.5979C363.891 79.5979 363.788 79.4976 363.788 79.4976C363.685 79.3959 363.685 79.3959 363.685 79.2942C363.58 79.1925 363.58 79.0921 363.58 79.0921ZM370.734 77.0667H370.319V76.6612H371.667V77.0667H371.252V79.5979H370.733V77.0667H370.734ZM377.058 76.6612H377.576C377.679 76.6612 377.679 76.6612 377.783 76.7629H377.991C377.991 76.7629 378.094 76.7629 378.198 76.8646C378.198 76.8646 378.302 76.8646 378.302 76.965C378.406 77.0667 378.406 77.0667 378.406 77.1677C378.509 77.2688 378.509 77.3698 378.509 77.5732C378.509 77.877 378.509 77.9787 378.406 78.1801L378.094 78.4839L378.612 79.5986H378.094L377.679 78.5856H377.577V79.5979H377.058V76.6612H377.058ZM377.576 78.1801H377.783C377.887 78.1801 377.887 78.1801 377.991 78.079V77.1664C377.887 77.0653 377.887 77.0653 377.783 77.0653H377.577V78.1788L377.576 78.1801ZM384.004 76.6612H384.419V79.5979H384.004V76.6612ZM390.016 76.6612H391.158V77.0667H390.536V77.978H391.053V78.2818H390.535V79.2942H391.156V79.5979H390.016V76.6612ZM396.444 79.0921C396.444 78.9904 396.444 78.8893 396.548 78.8893V78.6873H396.859V79.0921L396.963 79.1925C396.963 79.2942 396.963 79.2942 397.066 79.2942H397.377C397.377 79.1925 397.481 79.1925 397.481 79.0921V78.8893C397.481 78.8893 397.377 78.8893 397.377 78.7876V78.6873C397.274 78.6873 397.274 78.5856 397.274 78.5856L396.755 77.978C396.652 77.877 396.652 77.7753 396.548 77.6736V77.0667C396.548 76.965 396.652 76.965 396.652 76.8646C396.755 76.7629 396.859 76.7629 396.859 76.7629C396.963 76.6612 397.066 76.6612 397.17 76.6612C397.274 76.6612 397.481 76.6612 397.481 76.7629C397.585 76.7629 397.688 76.8646 397.688 76.8646L397.895 77.0667V77.4722C397.895 77.5732 397.792 77.5732 397.792 77.6736H397.481V77.4715C397.481 77.3698 397.481 77.2688 397.377 77.1677C397.377 77.0667 397.274 77.0667 397.17 77.0667H396.963V77.5732C397.066 77.5732 397.066 77.6736 397.066 77.6736L397.585 78.2811C397.688 78.3822 397.792 78.4839 397.792 78.5856C397.864 78.7085 397.9 78.8488 397.895 78.991V79.2942L397.689 79.4976C397.689 79.4976 397.585 79.5973 397.481 79.5973C397.377 79.6996 397.274 79.6996 397.17 79.6996C397.066 79.6996 396.963 79.6996 396.859 79.5979C396.755 79.5979 396.652 79.4976 396.652 79.4976C396.548 79.3959 396.548 79.3959 396.548 79.2942C396.548 79.1925 396.444 79.0921 396.444 79.0921ZM336.521 75.0399H397.895V75.4933H336.521V75.0399Z" fill="white"/>
<path d="M188.74 62.8146H190.932C191.082 62.81 191.227 62.8711 191.328 62.9815C192.095 63.7579 192.879 64.5263 193.655 65.3034C193.782 65.4283 193.849 65.4363 193.976 65.3034L196.294 62.9901C196.399 62.8778 196.545 62.812 196.7 62.806H201.109C201.252 62.806 201.387 62.806 201.413 62.9815C201.417 63.0905 201.381 63.1975 201.311 63.2819C200.949 63.6582 200.578 64.0171 200.207 64.3847L196.648 67.9503C196.53 68.0673 196.522 68.143 196.648 68.2594C198.515 70.0967 200.373 71.9393 202.222 73.7879L202.357 73.9215C202.408 73.9899 202.42 74.0797 202.389 74.1588C202.358 74.2379 202.289 74.2964 202.205 74.3143C202.141 74.323 202.076 74.323 202.011 74.3143H197.635C197.482 74.3196 197.334 74.2585 197.23 74.1468C196.151 73.0613 195.055 71.9924 193.976 70.907C193.849 70.7813 193.782 70.7813 193.655 70.907C192.576 71.9924 191.491 73.0726 190.4 74.1468C190.299 74.2618 190.149 74.3236 189.996 74.3143H185.628C185.484 74.3143 185.341 74.3143 185.265 74.1548C185.189 73.9966 185.265 73.8962 185.4 73.7958C187.244 71.9532 189.096 70.1133 190.957 68.276C191.134 68.0925 191.134 68.0925 190.957 67.9084L186.454 63.4242L186.285 63.2653C186.201 63.1736 186.126 63.0819 186.192 62.9482C186.242 62.8326 186.363 62.7641 186.488 62.7814H188.74V62.8146ZM169.11 72.4099V74.0052C169.11 74.2558 169.025 74.3389 168.781 74.3389H165.636C165.374 74.3389 165.29 74.2472 165.29 73.9966V71.3663C165.307 70.3925 165.111 69.4266 164.717 68.5346C164.178 67.2962 162.982 66.4626 161.622 66.3809C160.734 66.2506 159.828 66.3842 159.017 66.7644C158.074 67.2676 157.388 68.1404 157.127 69.17C156.893 69.9557 156.782 70.772 156.799 71.5916V73.9547C156.799 74.2558 156.723 74.3389 156.42 74.3389H153.358C153.045 74.3389 152.97 74.2638 152.97 73.9547C152.97 72.836 152.97 71.7166 153.021 70.6145C153.061 68.4754 153.902 66.4274 155.382 64.8686C156.459 63.7127 157.902 62.9529 159.472 62.7143C160.861 62.4776 162.285 62.5581 163.637 62.9482C165.718 63.601 167.402 65.1285 168.241 67.1234C168.831 68.5193 169.118 70.0215 169.084 71.5331L169.11 72.4106V72.4099ZM183.317 62.8146H184.894C185.114 62.8146 185.223 62.9064 185.232 63.0985C185.337 64.8068 184.806 66.4952 183.739 67.8419C182.599 69.2584 181.025 70.2701 179.253 70.7228C179.183 70.7295 179.118 70.764 179.075 70.8199C179.031 70.875 179.013 70.9462 179.025 71.0153V73.9633C179.025 74.2472 178.942 74.3309 178.654 74.3309H175.619C175.316 74.3309 175.24 74.2558 175.24 73.9467V71.0645C175.24 70.8644 175.181 70.7807 174.97 70.7222C173.208 70.2874 171.645 69.2824 170.526 67.8665C169.746 66.8674 169.275 65.667 169.169 64.4086C169.126 63.9912 169.169 63.5737 169.118 63.1563C169.118 62.9143 169.202 62.8219 169.439 62.8219H172.634C172.853 62.8219 172.938 62.9143 172.938 63.1477C172.898 63.7499 172.986 64.3528 173.199 64.9185C173.6 65.8039 174.34 66.4952 175.256 66.8395C177.05 67.6172 179.142 67.2071 180.501 65.8119C181.112 65.2056 181.446 64.3794 181.429 63.5239C181.42 63.3983 181.42 63.2733 181.429 63.1477C181.429 62.9057 181.522 62.814 181.766 62.814H183.317V62.8146ZM154.59 77.2617C154.761 77.3906 154.883 77.5734 154.935 77.7802H154.539C154.495 77.6638 154.411 77.5661 154.303 77.5043C154.189 77.4285 154.052 77.3913 153.915 77.3953C153.785 77.394 153.656 77.4285 153.544 77.4957C153.436 77.5588 153.348 77.6519 153.291 77.7629C153.228 77.8932 153.196 78.0361 153.198 78.1803C153.196 78.3279 153.227 78.4735 153.291 78.6064C153.354 78.7214 153.448 78.8165 153.561 78.8823C153.681 78.9428 153.814 78.9747 153.949 78.974C154.122 78.978 154.29 78.9182 154.421 78.8072C154.556 78.6888 154.64 78.5247 154.657 78.3478H153.814V78.0886H154.977V78.4562C154.953 78.6124 154.892 78.7613 154.8 78.8903C154.71 79.0232 154.588 79.1315 154.447 79.208C154.287 79.2864 154.11 79.3263 153.932 79.325C153.735 79.3276 153.54 79.2785 153.367 79.1827C153.206 79.089 153.075 78.9534 152.988 78.7905C152.802 78.4223 152.802 77.9896 152.988 77.6206C153.07 77.4545 153.202 77.3175 153.367 77.2285C153.54 77.1327 153.735 77.0835 153.932 77.0869C154.165 77.0749 154.395 77.1361 154.59 77.2617H154.59ZM158.983 78.7985H158.055L157.912 79.2911H157.507L158.351 77.1454H158.755L159.598 79.2911H159.152L158.983 78.7992V78.7985ZM158.882 78.5233L158.519 77.5043L158.156 78.5233H158.882ZM164.413 77.1201V79.2911H164.059V77.6625L163.435 79.2911H163.123L162.49 77.6878V79.2911H162.128V77.1201H162.558L163.275 78.8318L163.975 77.1201H164.413ZM167.533 77.0869V79.2911H167.187V77.0869H167.533ZM172.086 79.2911H171.732L170.661 77.6878V79.2911H170.307V77.1201H170.661L171.732 78.7321V77.0948H172.086V79.2911ZM176.513 77.2617C176.687 77.388 176.81 77.5721 176.858 77.7802H176.462C176.416 77.6652 176.333 77.5688 176.226 77.5043C176.112 77.4285 175.976 77.3913 175.838 77.3953C175.708 77.394 175.579 77.4285 175.467 77.4957C175.357 77.5568 175.268 77.6499 175.215 77.7629C175.147 77.8918 175.115 78.0354 175.121 78.1803C175.119 78.3279 175.15 78.4735 175.215 78.6064C175.274 78.7208 175.364 78.8165 175.476 78.8823C175.598 78.9441 175.735 78.9753 175.872 78.974C176.045 78.9767 176.212 78.9168 176.344 78.8072C176.475 78.6869 176.559 78.524 176.581 78.3478H175.737V78.0886H176.842V78.4562C176.799 78.7773 176.6 79.0578 176.31 79.2073C176.154 79.2871 175.98 79.327 175.805 79.325C175.607 79.3283 175.412 79.2791 175.24 79.1827C175.076 79.0897 174.943 78.9541 174.852 78.7905C174.683 78.4243 174.683 78.0035 174.852 77.6379C174.939 77.4751 175.071 77.3388 175.231 77.2457C175.404 77.1507 175.599 77.1015 175.796 77.1035C176.047 77.0722 176.3 77.1281 176.513 77.2617ZM184.329 77.2617C184.503 77.388 184.626 77.5721 184.675 77.7802H184.304C184.257 77.6652 184.174 77.5688 184.068 77.5043C183.899 77.3993 183.694 77.3674 183.502 77.4159C183.309 77.4651 183.145 77.5907 183.048 77.7629C182.988 77.8938 182.959 78.0368 182.963 78.1803C182.956 78.3279 182.988 78.4755 183.056 78.6064C183.113 78.7227 183.204 78.8191 183.317 78.8823C183.44 78.9441 183.577 78.9753 183.714 78.974C183.884 78.976 184.049 78.9168 184.178 78.8072C184.312 78.6875 184.398 78.5247 184.422 78.3478H183.579V78.0886H184.683V78.4562C184.658 78.6111 184.6 78.7586 184.515 78.8903C184.422 79.0232 184.297 79.1322 184.152 79.208C183.995 79.2858 183.822 79.3256 183.647 79.325C183.446 79.3276 183.248 79.2785 183.073 79.1827C182.914 79.087 182.784 78.9514 182.694 78.7905C182.514 78.4269 182.514 78.0015 182.694 77.6379C182.781 77.4751 182.913 77.3388 183.073 77.2457C183.246 77.1494 183.44 77.1008 183.638 77.1035C183.88 77.0796 184.123 77.1354 184.329 77.2617ZM188.571 79.2911L188.022 78.4562H187.77V79.2911H187.424V77.0869H188.2C188.407 77.0756 188.611 77.1414 188.773 77.2703C188.903 77.398 188.973 77.5734 188.967 77.7549C188.971 77.9065 188.92 78.054 188.823 78.1724C188.71 78.2867 188.562 78.3605 188.402 78.3811L188.967 79.2917H188.571V79.2911ZM187.727 78.1724H188.124C188.41 78.1724 188.553 78.0467 188.553 77.7968C188.557 77.6938 188.517 77.594 188.444 77.5209C188.355 77.4465 188.24 77.4106 188.124 77.4212H187.727V78.1724ZM193.191 77.2032C193.355 77.2963 193.488 77.4325 193.579 77.596C193.674 77.7735 193.723 77.9716 193.722 78.1724C193.725 78.3731 193.676 78.5712 193.579 78.7487C193.489 78.9149 193.355 79.0531 193.191 79.1495C192.845 79.3383 192.425 79.3383 192.078 79.1495C191.912 79.0551 191.778 78.9162 191.69 78.7487C191.591 78.5732 191.54 78.3738 191.547 78.1724C191.543 77.9709 191.592 77.7722 191.69 77.596C191.779 77.4312 191.914 77.2943 192.078 77.2039C192.425 77.0151 192.845 77.0151 193.191 77.2039V77.2032ZM192.255 77.4877C192.145 77.5482 192.057 77.6419 192.003 77.7549C191.94 77.8852 191.908 78.0274 191.91 78.1724C191.908 78.3166 191.94 78.4595 192.003 78.5898C192.059 78.7035 192.146 78.7992 192.255 78.8657C192.371 78.9308 192.502 78.9627 192.635 78.9574C192.899 78.97 193.144 78.8251 193.259 78.5898C193.326 78.4608 193.358 78.3173 193.352 78.1724C193.358 78.0274 193.326 77.8839 193.259 77.7549C193.205 77.6419 193.116 77.5488 193.006 77.4877C192.894 77.4192 192.766 77.3847 192.635 77.3873C192.502 77.3847 192.37 77.4192 192.256 77.487L192.255 77.4877ZM196.757 77.0869V78.3811C196.747 78.536 196.792 78.6895 196.884 78.8151C197.089 79.0039 197.406 79.0039 197.61 78.8151C197.703 78.6895 197.747 78.536 197.736 78.3811V77.0869H198.09V78.3811C198.11 78.6277 198.028 78.8716 197.863 79.0578C197.696 79.2173 197.471 79.3017 197.239 79.2911C197.013 79.2971 196.794 79.2126 196.632 79.0578C196.467 78.8716 196.385 78.6277 196.404 78.3811V77.0869H196.758H196.757ZM201.202 78.4562V79.2911H200.847V77.0869H201.589C201.798 77.0696 202.004 77.1361 202.163 77.2703C202.294 77.3973 202.364 77.5734 202.357 77.7549C202.364 77.9384 202.294 78.1172 202.163 78.2468C202 78.3731 201.796 78.4363 201.589 78.423L201.202 78.4562ZM201.994 77.7881C202.001 77.6864 201.965 77.5861 201.893 77.5123C201.797 77.4392 201.677 77.4033 201.556 77.4126H201.202V78.1724H201.556C201.851 78.1391 201.995 78.0135 201.995 77.7549V77.7881H201.994Z" fill="white"/>
<path d="M79.917 1.97997C81.1627 1.33453 82.5559 0.984221 83.9572 1.01081C86.0909 1.01081 88.1981 1.93544 89.6186 3.47892C89.82 3.70293 90.0214 3.92761 90.177 4.19682C91.1395 5.51563 91.6792 7.10431 91.7803 8.72822C91.6247 8.72822 89.4903 8.80001 88.9592 8.80001C87.6125 8.80001 86.293 8.54875 85.0473 8.08212C84.4152 7.83085 83.8289 7.53505 83.2971 7.14021C82.5825 6.61906 82.0055 5.97362 81.5476 5.24641C80.8609 4.21477 80.4209 3.10269 79.917 1.97997Z" fill="white"/>
<path d="M90.2321 5.1122C90.2321 6.45826 89.8472 7.69663 89.2151 8.81802C89.9755 8.79143 91.6519 8.74623 91.7809 8.74623C91.6798 7.13095 91.1481 5.53363 90.1769 4.21482C90.1769 4.21482 90.1769 4.18823 90.1503 4.18823C90.2048 4.46609 90.2321 4.78914 90.2321 5.1122ZM87.8138 9.41959C88.9312 9.22217 91.7802 9.393 91.7802 9.393C91.7071 11.088 91.1208 12.7758 90.0493 14.1484C89.1326 15.315 87.869 16.2124 86.4398 16.6877C84.3048 17.4056 81.8958 17.1815 79.9355 16.1406C80.3935 15.0996 80.8236 14.0228 81.4378 13.0536C82.0241 12.0579 82.8577 11.2143 83.8468 10.6128C85.0473 9.91281 86.4485 9.57181 87.8138 9.41959Z" fill="white"/>
<path d="M88.8854 9.34711C87.3652 11.5367 84.6711 12.9811 81.6207 12.9811H81.4924C81.4658 13.035 81.4379 13.0529 81.4193 13.1074C80.8057 14.0673 80.3756 15.1441 79.917 16.1851C81.8779 17.2261 84.3141 17.4501 86.4213 16.7322C87.8411 16.2569 89.142 15.3595 90.0307 14.1929C91.0936 12.8196 91.6526 11.1326 91.7623 9.43685C91.7803 9.4189 90.159 9.29327 88.8854 9.34711ZM91.4506 15.3861C91.2492 15.2605 90.9653 15.2159 90.7181 15.2605C90.2873 15.3323 89.9297 15.7092 89.8752 16.1313C89.82 16.5082 90.0035 16.8757 90.3053 17.0732C90.6356 17.3244 91.1481 17.3244 91.4778 17.0732C91.7344 16.903 91.9086 16.5979 91.9365 16.3021C91.9817 15.9604 91.7803 15.5928 91.4512 15.3861H91.4506ZM91.7072 16.463C91.6061 16.8578 91.2033 17.1363 90.7912 17.0645C90.4063 17.0107 90.1038 16.6697 90.1038 16.2928C90.0766 15.9159 90.3877 15.5483 90.7639 15.4938C90.9653 15.4672 91.1667 15.4938 91.3502 15.5928C91.6247 15.7364 91.8082 16.1133 91.7072 16.4636V16.463ZM91.1488 16.3646C91.3223 16.2655 91.4326 16.0415 91.3043 15.8707C91.1302 15.6194 90.8005 15.7451 90.5439 15.7178V16.7594H90.7453V16.3646H90.9195C90.9926 16.4902 91.0478 16.6158 91.1209 16.7415H91.3775C91.295 16.6338 91.2219 16.4809 91.1481 16.3646H91.1488ZM90.7367 16.2117V15.8886C90.8643 15.8886 91.0936 15.862 91.1209 16.0595C91.1209 16.2389 90.8915 16.2124 90.736 16.2124L90.7367 16.2117ZM103.287 9.44549H103.671C103.727 10.4864 103.8 11.5367 103.873 12.5597H103.516C103.314 11.8863 103.057 11.2136 102.599 10.6387C102.215 10.1634 101.637 9.841 100.997 9.841C100.337 9.81374 99.6772 10.1368 99.2923 10.6387C98.8343 11.2582 98.6329 12.0572 98.6056 12.8017C98.6056 13.5196 98.5505 14.2468 98.7791 14.9195C98.9533 15.4399 99.2099 15.9877 99.6679 16.3373C100.227 16.7322 100.987 16.786 101.629 16.6158C102.16 16.463 102.591 16.0415 102.746 15.5476C102.92 15.0989 102.847 14.6057 102.847 14.1298C102.874 13.9596 102.719 13.8067 102.545 13.7801C102.215 13.7263 101.913 13.7535 101.583 13.7535V13.376H104.734V13.7529C104.532 13.7529 104.331 13.7263 104.12 13.8247C103.965 13.8785 103.919 14.0493 103.919 14.2016V17.1629H103.562C103.434 16.7142 103.305 16.2655 103.158 15.8441C102.801 16.445 102.242 16.9116 101.536 17.0645C100.694 17.2347 99.7868 17.0645 99.0723 16.6158C98.4129 16.2389 97.9276 15.6467 97.5979 14.974C97.1944 14.2016 97.1127 13.2776 97.2955 12.4341C97.451 11.8598 97.6983 11.3393 98.0832 10.8454C98.5418 10.2445 99.2006 9.77785 99.9337 9.52658C100.565 9.32916 101.253 9.32916 101.895 9.57976C102.252 9.73265 102.581 9.93007 102.856 10.1813C102.984 9.96597 103.14 9.7147 103.287 9.44549ZM119.749 9.76854C119.548 9.86759 119.364 10.065 119.364 10.289C119.309 10.6121 119.621 10.9351 119.951 10.9085C120.28 10.9351 120.61 10.6121 120.582 10.289C120.564 9.91212 120.106 9.58907 119.749 9.76854ZM133.646 12.1024C133.646 12.4254 133.344 12.704 133.014 12.6767C132.812 12.6767 132.611 12.5511 132.51 12.3809C132.455 12.2546 132.437 12.1296 132.336 12.0578C132.007 12.1835 131.704 12.3536 131.42 12.5783C131.594 12.8023 131.75 13.0715 131.804 13.3494C131.878 13.8253 131.75 14.3731 131.374 14.6961C131.099 14.9381 130.77 15.1176 130.413 15.2166C129.798 15.414 129.166 15.2166 128.562 15.3868C128.277 15.4586 128.131 15.7816 128.277 16.0329C128.406 16.2303 128.681 16.2303 128.892 16.2303C129.523 16.2303 130.165 16.1771 130.797 16.2303C131.255 16.2841 131.787 16.4011 132.07 16.8046C132.428 17.2985 132.272 18.0523 131.842 18.4465C131.456 18.824 130.953 18.9942 130.44 19.066C129.936 19.1378 129.396 19.1378 128.864 19.066C128.461 18.9942 128.049 18.8686 127.746 18.5728C127.572 18.4199 127.463 18.1959 127.463 17.9712C127.463 17.6934 127.637 17.478 127.847 17.3251C128.104 17.1549 128.379 17.0738 128.662 17.0293C128.361 16.9575 128.031 16.8319 127.802 16.5806C127.518 16.2841 127.545 15.7816 127.802 15.4858C128.003 15.2611 128.287 15.1355 128.562 15.0371C128.305 14.8842 128.058 14.7141 127.902 14.4356C127.6 13.9869 127.6 13.368 127.847 12.8921C128.049 12.5152 128.406 12.246 128.791 12.0937C129.551 11.7973 130.467 11.8963 131.154 12.3716C131.484 12.0758 131.869 11.8784 132.272 11.6716C132.501 11.5733 132.757 11.4476 133.032 11.4742C133.362 11.4835 133.674 11.7614 133.646 12.1024ZM130.852 13.6013C130.852 13.2065 130.752 12.8023 130.449 12.5331C130.165 12.2553 129.735 12.2101 129.386 12.3357C128.983 12.4886 128.727 12.8834 128.672 13.2783C128.599 13.7535 128.672 14.3013 129.029 14.6689C129.413 15.0637 130.119 15.0637 130.504 14.6689C130.779 14.3997 130.852 13.9689 130.852 13.6013ZM127.344 16.6072V17.002H125.108C125.108 16.8764 125.081 16.7242 125.108 16.6072C125.282 16.6072 125.438 16.6072 125.612 16.5354C125.74 16.4636 125.813 16.2841 125.786 16.1585V13.9151C125.759 13.5202 125.713 13.0895 125.401 12.8203C125.145 12.569 124.742 12.5245 124.384 12.569C123.999 12.6408 123.698 12.8921 123.495 13.2151C123.322 13.5382 123.24 13.8885 123.24 14.2561V16.0688C123.24 16.2396 123.266 16.4191 123.413 16.5175C123.569 16.5892 123.743 16.5892 123.917 16.5892V16.9841H116.121V16.5892C116.322 16.5892 116.552 16.6158 116.753 16.5175C116.909 16.4457 116.955 16.2662 116.955 16.1226V13.7629C116.955 13.386 116.881 12.9911 116.552 12.7392C116.093 12.3895 115.361 12.569 115.05 13.0356C114.875 13.3142 114.747 13.6372 114.692 13.9596V16.1765C114.692 16.3293 114.747 16.4729 114.893 16.5534C115.095 16.6251 115.324 16.6072 115.525 16.6072V17.002H112.933V16.6072C113.134 16.6072 113.337 16.6338 113.547 16.554C113.675 16.4995 113.776 16.3832 113.776 16.2303V13.8167C113.749 13.4398 113.703 13.045 113.391 12.793C113.107 12.5424 112.704 12.5424 112.347 12.6408C112.145 12.7126 111.962 12.8655 111.843 13.0356C111.614 13.3587 111.486 13.7535 111.486 14.1577V16.1499C111.486 16.2755 111.513 16.4277 111.614 16.4995C111.816 16.6258 112.072 16.5713 112.301 16.5713V16.9661H109.25C109.049 16.9396 108.82 16.9396 108.618 16.8405C108.389 16.7149 108.289 16.4636 108.216 16.2217C107.913 16.4995 107.629 16.796 107.254 16.9396C106.823 17.1097 106.31 17.137 105.851 17.0379C105.494 16.9661 105.137 16.7867 104.936 16.4636C104.706 16.0867 104.762 15.5928 105.009 15.2166C105.238 14.8935 105.595 14.6689 105.953 14.4987C106.667 14.1756 107.427 14.0228 108.16 13.9244V13.0802C108.105 12.6322 107.702 12.3091 107.272 12.2373C106.887 12.1835 106.484 12.2373 106.154 12.4347C106.053 12.5065 105.925 12.6049 105.98 12.7578C106.08 12.9552 106.283 13.1347 106.264 13.3767C106.264 13.6731 105.961 13.8971 105.678 13.8705C105.293 13.8971 104.99 13.5202 105.046 13.1706C105.101 12.6229 105.604 12.228 106.09 12.0219C106.676 11.7973 107.336 11.7707 107.968 11.8957C108.426 11.9954 108.829 12.2912 109.013 12.7219C109.086 12.9193 109.086 13.1167 109.086 13.3228V15.862C109.086 16.0867 109.159 16.3559 109.415 16.4816C109.645 16.5534 109.901 16.5354 110.13 16.5354C110.304 16.5354 110.515 16.4636 110.561 16.2841C110.588 16.1858 110.588 16.0601 110.588 15.9611V12.8735C110.588 12.7033 110.533 12.5504 110.386 12.452C110.231 12.3802 110.057 12.353 109.901 12.3257V11.9495C110.386 11.9495 110.863 11.8957 111.348 11.8777C111.421 12.2273 111.477 12.5777 111.504 12.9187C111.806 12.47 112.218 12.0479 112.777 11.9222C113.208 11.8239 113.693 11.8504 114.051 12.1197C114.353 12.3443 114.509 12.6674 114.609 13.017C114.912 12.4966 115.425 12.0213 116.029 11.9222C116.46 11.8505 116.973 11.8957 117.303 12.2187C117.688 12.5956 117.835 13.1161 117.835 13.6093V16.0954C117.835 16.221 117.861 16.3466 117.99 16.4184C118.192 16.544 118.475 16.4902 118.705 16.5168C118.906 16.5168 119.135 16.5434 119.364 16.4902C119.566 16.4636 119.667 16.2655 119.667 16.0954V12.9632C119.667 12.7658 119.594 12.5683 119.41 12.47C119.209 12.3709 119.007 12.3709 118.778 12.3709V11.9761C119.391 11.9495 119.996 11.9495 120.583 11.9043V15.862C120.583 16.0322 120.555 16.2389 120.656 16.4091C120.757 16.463 120.857 16.5082 120.985 16.5082H121.929C122.131 16.5082 122.36 16.3553 122.36 16.1313V12.9452C122.36 12.7478 122.287 12.5238 122.104 12.4248C121.901 12.2991 121.645 12.3264 121.389 12.2991C121.416 12.1735 121.334 12.0213 121.443 11.9495C121.975 11.8957 122.534 11.8957 123.093 11.8504C123.166 12.2273 123.221 12.5683 123.248 12.9452C123.478 12.5683 123.78 12.2453 124.21 12.0745C124.596 11.9043 124.998 11.8505 125.401 11.9043C125.731 11.9581 126.033 12.0751 126.244 12.3264C126.547 12.676 126.702 13.152 126.702 13.5914V16.0056C126.702 16.1585 126.729 16.3553 126.876 16.4543C126.986 16.6072 127.169 16.6072 127.344 16.6072ZM108.188 14.4003C107.556 14.4987 106.942 14.5971 106.383 14.9201C106.099 15.091 105.879 15.3688 105.851 15.6919C105.797 15.9883 105.851 16.338 106.08 16.5361C106.283 16.7328 106.584 16.7867 106.869 16.7328C107.4 16.661 107.886 16.2576 108.087 15.7637C108.27 15.315 108.17 14.8397 108.188 14.3997V14.4003ZM129.203 17.0831C128.873 17.1549 128.488 17.3071 128.315 17.6036C128.158 17.8549 128.214 18.2225 128.47 18.4292C128.754 18.6532 129.102 18.725 129.432 18.7523C129.936 18.7788 130.449 18.7788 130.934 18.5814C131.191 18.4558 131.438 18.2856 131.567 18.0344C131.695 17.7831 131.567 17.46 131.365 17.2899C131.136 17.119 130.833 17.0652 130.522 17.0379C130.091 17.0113 129.633 17.0113 129.203 17.0831ZM110.149 1.2076V1.60244C110.432 1.62969 110.735 1.54926 111.009 1.70148C111.165 1.77327 111.239 1.95275 111.239 2.09633V7.72253C111.239 7.89336 111.183 8.07284 111.009 8.11738C110.835 8.18917 110.624 8.17122 110.451 8.17122V8.56606H112.915V8.17122C112.713 8.17122 112.484 8.22506 112.301 8.09943C112.201 8.04625 112.145 7.92926 112.173 7.80363V1.0813C111.495 1.15309 110.835 1.18034 110.149 1.2076ZM94.1899 1.60244C94.4186 1.60244 94.6479 1.57585 94.8765 1.65628C95.0507 1.71013 95.1331 1.88096 95.1059 2.05113V7.82091C95.1059 7.99174 95.0328 8.14463 94.8493 8.19847C94.6479 8.25165 94.4465 8.25165 94.2358 8.25165C94.2078 8.25165 94.1806 8.2789 94.1806 8.2789V8.6558H100.557C100.612 7.83022 100.63 6.98735 100.685 6.16974H100.282C100.209 6.69088 100.08 7.2652 99.723 7.68664C99.4206 8.03694 98.9626 8.20711 98.5318 8.26095C98.0739 8.3148 97.6159 8.28754 97.1579 8.3148C96.9292 8.3148 96.7271 8.3148 96.4985 8.28821C96.3429 8.26162 96.2419 8.11737 96.2419 7.99174V5.08425C96.6999 5.08425 97.231 5.01246 97.6159 5.30893C98.0745 5.63198 98.1197 6.25084 98.1742 6.75337H98.5598V3.11933H98.1742C98.1476 3.44239 98.1197 3.76544 97.9735 4.06125C97.7993 4.3843 97.4882 4.63556 97.112 4.68077C96.8096 4.70735 96.5257 4.68077 96.2512 4.70735V2.07838C96.2233 1.88096 96.3795 1.70148 96.5809 1.70148H98.6601C99.0178 1.70148 99.4206 1.75533 99.6499 2.05113C99.9524 2.40144 99.9524 2.89532 100.053 3.31676H100.438C100.364 2.64339 100.337 1.9707 100.263 1.29733H94.144C94.1899 1.33323 94.1899 1.47681 94.1899 1.60311V1.60244ZM123.587 1.37843C123.386 1.47681 123.23 1.67423 123.23 1.89891C123.23 2.22196 123.533 2.54502 123.89 2.51776C124.247 2.51776 124.522 2.14086 124.448 1.79986C124.375 1.43227 123.945 1.20826 123.587 1.37843ZM120.079 1.65628C120.052 2.25786 119.924 2.87671 119.521 3.3706C119.319 3.62186 118.989 3.7475 118.66 3.79203V4.16893H119.548V7.50716C119.548 7.80363 119.649 8.12668 119.878 8.35136C120.162 8.64716 120.593 8.72759 120.968 8.72759C121.453 8.72759 121.912 8.44974 122.141 8.02764C122.369 7.65074 122.443 7.20205 122.443 6.76267H122.058C122.058 7.08573 122.003 7.40878 121.857 7.70458C121.729 7.92926 121.554 8.09943 121.298 8.15327C121.041 8.20711 120.794 8.12668 120.638 7.95585C120.482 7.78568 120.464 7.53441 120.436 7.30974V4.14234H122.727C122.928 4.14234 123.158 4.14234 123.341 4.26797C123.496 4.36635 123.542 4.56377 123.542 4.74325V7.73184C123.542 7.88472 123.487 8.05489 123.341 8.12668C123.166 8.19847 122.956 8.17986 122.754 8.17986V8.57537H125.218V8.18052C125.045 8.18052 124.889 8.18052 124.715 8.15393C124.614 8.12668 124.486 8.05423 124.459 7.95585C124.431 7.83022 124.431 7.70458 124.431 7.57895V3.57733C123.084 3.63051 121.765 3.64845 120.418 3.63051V1.61175C120.336 1.65628 120.208 1.65628 120.079 1.65628ZM130.193 3.64845C130.138 3.64845 130.065 3.62186 130.038 3.7023V4.02535C130.294 4.02535 130.569 3.99876 130.77 4.15165C130.944 4.27661 130.972 4.52788 130.972 4.7253V7.75843C130.972 7.88472 130.972 8.00969 130.871 8.08148C130.715 8.23437 130.486 8.20778 130.285 8.23437V8.62921H132.548V8.23437C132.373 8.23437 132.19 8.23437 132.044 8.16258C131.888 8.09079 131.87 7.88406 131.87 7.74048V5.80215C131.897 5.32687 132.044 4.86024 132.401 4.53719C132.758 4.21413 133.289 4.11509 133.747 4.28592C134.031 4.41155 134.206 4.66282 134.306 4.93203C134.38 5.20988 134.407 5.50635 134.407 5.80282V7.79432C134.407 7.92062 134.352 8.09079 134.251 8.17122C134.096 8.27026 133.922 8.24301 133.72 8.24301V8.63785H135.983V8.24301C135.809 8.21642 135.625 8.24301 135.479 8.17122C135.333 8.09943 135.305 7.89336 135.305 7.74978V5.30893C135.305 4.88683 135.177 4.43814 134.92 4.0885C134.746 3.86382 134.489 3.7116 134.205 3.63981C133.647 3.48693 132.987 3.58597 132.529 3.93561C132.272 4.13303 132.044 4.3843 131.87 4.63556C131.842 4.25867 131.796 3.91767 131.714 3.56802C131.229 3.59461 130.697 3.6212 130.193 3.64845ZM114.72 3.56802C114.134 3.6212 113.529 3.63981 112.943 3.63981V4.01671C113.144 4.01671 113.346 4.01671 113.529 4.0885C113.703 4.16029 113.832 4.36635 113.832 4.53719V6.75337C113.832 7.10367 113.886 7.47127 114.033 7.79432C114.161 8.07284 114.39 8.28821 114.647 8.44043C115.105 8.69169 115.71 8.69169 116.195 8.49427C116.626 8.29685 116.983 7.9738 117.312 7.62349C117.34 7.94721 117.386 8.24301 117.386 8.56606C117.944 8.59265 118.531 8.53947 119.09 8.53947V8.16258C118.834 8.16258 118.531 8.21575 118.33 8.00969C118.156 7.83952 118.156 7.61485 118.156 7.39083V3.50487C117.569 3.55872 116.983 3.57666 116.378 3.60392V3.98081C116.58 3.98081 116.809 4.0074 117.01 4.07919C117.185 4.15098 117.294 4.33046 117.294 4.50129V6.42167C117.294 6.91489 117.093 7.41742 116.708 7.74048C116.451 7.96515 116.077 8.06353 115.746 8.03694C115.389 8.01035 115.087 7.78568 114.931 7.51647C114.775 7.23795 114.757 6.91489 114.775 6.61909C114.72 5.63198 114.72 4.59103 114.72 3.56802ZM100.191 3.64845C100.191 3.77475 100.164 3.89972 100.164 4.02535C100.42 4.07919 100.668 4.05194 100.896 4.12439C101.098 4.22277 101.18 4.44745 101.281 4.61762C101.913 6.00888 102.555 7.40878 103.214 8.77213H103.517C104.103 7.42673 104.707 6.08931 105.293 4.74391C105.367 4.57308 105.45 4.36635 105.623 4.25003C105.779 4.12373 105.981 4.07919 106.155 4.0526V3.67571H104.075V4.0526C104.304 4.10578 104.579 4.12439 104.735 4.30387C104.835 4.40225 104.863 4.58172 104.79 4.69871C104.387 5.64062 103.975 6.56525 103.571 7.50716C103.168 6.60979 102.728 5.71241 102.325 4.82435C102.252 4.65351 102.124 4.44745 102.197 4.25003C102.371 4.02535 102.701 4.09714 102.93 4.0526V3.67571C102.023 3.64912 101.107 3.64912 100.191 3.64912V3.64845ZM110.122 7.5969C109.617 8.46768 108.472 8.94296 107.483 8.69169C106.723 8.49427 106.109 7.89336 105.861 7.17547C105.733 6.79857 105.688 6.37647 105.706 5.98163C105.706 5.36277 105.935 4.73461 106.366 4.26797C106.667 3.91767 107.08 3.6664 107.538 3.56802C108.17 3.44172 108.885 3.51418 109.416 3.89108C109.974 4.26797 110.36 4.86024 110.46 5.53294C110.552 6.23289 110.479 6.97804 110.121 7.5969H110.122ZM109.462 5.71241C109.435 5.31757 109.389 4.94134 109.205 4.56377C109.031 4.21413 108.674 3.94492 108.289 3.89108C108.088 3.86449 107.859 3.86449 107.657 3.94425C107.355 4.07055 107.125 4.32182 106.97 4.59103C106.768 5.01246 106.713 5.4884 106.686 5.98163C106.686 6.5021 106.713 7.04983 106.915 7.55236C107.071 7.92926 107.373 8.27026 107.803 8.37795C108.088 8.43112 108.362 8.40453 108.619 8.2789C108.976 8.10873 109.205 7.75843 109.306 7.38153C109.489 6.83446 109.489 6.26014 109.462 5.71308V5.71241ZM129.579 7.90201C129.021 8.57537 128.059 8.89842 127.188 8.67375C126.501 8.52086 125.942 8.02764 125.64 7.40878C125.338 6.78926 125.31 6.08931 125.438 5.4432C125.613 4.47404 126.428 3.60392 127.445 3.50487C127.976 3.4517 128.563 3.55872 129.02 3.85518C129.634 4.23208 130.01 4.89614 130.11 5.59609C130.239 6.40372 130.11 7.27384 129.579 7.90267V7.90201ZM128.948 4.71666C128.791 4.33976 128.444 3.99876 128.004 3.94492C127.774 3.91833 127.545 3.91833 127.344 3.9981C126.886 4.16893 126.611 4.61762 126.501 5.09356C126.346 5.71241 126.346 6.35852 126.446 6.98668C126.519 7.43537 126.675 7.88406 127.032 8.18052C127.335 8.43179 127.793 8.50358 128.178 8.35069C128.535 8.22506 128.809 7.90201 128.938 7.57962C129.094 7.20205 129.14 6.80721 129.14 6.38578C129.176 5.7842 129.176 5.20988 128.947 4.71666H128.948Z" fill="white"/>
<path fill-rule="evenodd" clip-rule="evenodd" d="M170.665 1.0094H214.444L209.607 19.1364H165.829L168.288 9.83224L166.731 11.0354L165.255 12.1574L165.664 10.6326L166.813 6.46277L167.222 4.8588L168.043 5.98151L169.026 7.26443L170.665 1.0094ZM167.468 6.46344L169.026 8.548L166.32 10.6339L167.468 6.46344H167.468ZM186.079 1.81172H213.46L209.852 15.2856H182.552L184.192 8.86906H186.898L187.062 8.22827H184.439L186.079 1.81172ZM188.537 8.86973H191.243L189.767 14.4042H209.115L212.313 2.61271H192.883L191.407 8.22827H188.783L188.537 8.86973H188.537ZM178.7 1.81172H185.751L184.029 8.22827H182.061L181.897 8.86973H183.864L182.143 15.2869H175.093L176.815 8.86973H178.536L178.7 8.22827H176.979L178.7 1.81172H178.699H178.7ZM171.239 1.81172H178.289L176.65 8.22827H174.601C174.764 8.38847 174.847 8.6291 174.847 8.86973H176.404L174.764 15.2869H167.633L169.355 8.86973H170.912L171.077 8.22827H169.518L171.239 1.81172ZM193.948 6.46344L191.325 8.548L192.883 10.6339L193.948 6.46344ZM207.312 4.85947H208.541L206.164 13.6019H207.31L209.688 4.85947H210.918L211.246 3.41569H207.72L207.31 4.85947H207.312ZM205.18 4.85947H207.065L207.475 3.41569H204.36L201.654 13.6019H202.803L203.95 9.43075H205.425L205.835 7.98698H204.36L205.18 4.85947ZM198.047 11.1943C197.637 12.7989 197.965 13.7627 199.113 13.7627C200.262 13.7627 201.163 12.7996 201.573 11.1956L202.967 5.90241C203.458 4.29844 203.048 3.33526 201.902 3.33526C200.752 3.33526 199.933 4.29778 199.441 5.90175L198.048 11.1949H198.047V11.1943ZM200.671 5.82198C200.835 5.01966 201.162 4.7797 201.573 4.7797C201.9 4.7797 202.064 5.01966 201.9 5.82198L200.425 11.2754C200.179 11.9979 199.933 12.3176 199.523 12.3176C199.196 12.3176 199.031 11.9979 199.196 11.2754L200.671 5.82198ZM195.506 5.90175C194.687 8.7893 196.9 9.19079 196.325 11.276C196.161 11.9979 195.835 12.2379 195.424 12.2379C195.096 12.2379 194.933 11.9979 195.096 11.2754L195.342 10.473H194.277L194.031 11.1956C193.621 12.7996 193.948 13.7627 195.096 13.7627C196.244 13.7627 197.064 12.7996 197.473 11.1956C198.293 8.30804 196.161 7.90721 196.654 5.82132C196.9 5.01966 197.146 4.77903 197.556 4.77903C197.883 4.77903 198.047 5.01966 197.802 5.82132L197.72 6.30324H198.785L198.867 5.90175C199.358 4.29778 199.031 3.33526 197.883 3.33526C196.736 3.33526 195.916 4.29778 195.506 5.90175ZM188.948 17.5317L189.029 17.2917H189.767L189.604 17.7723C189.439 17.9332 189.275 18.013 189.112 18.0941C188.948 18.1738 188.783 18.1738 188.537 18.1738C188.209 18.1738 187.963 18.0941 187.8 17.9332C187.717 17.773 187.636 17.6128 187.717 17.2917C187.8 17.0505 187.964 16.8105 188.209 16.6503C188.456 16.4894 188.701 16.409 189.029 16.409C189.193 16.409 189.357 16.4894 189.521 16.4894C189.685 16.5692 189.767 16.7301 189.849 16.8105L189.603 16.9707L189.357 16.7301C189.275 16.7301 189.111 16.6503 188.948 16.6503C188.73 16.6436 188.519 16.7314 188.373 16.8896C188.127 16.9707 188.046 17.1315 187.964 17.2917C187.964 17.5317 187.964 17.6128 188.046 17.7723C188.209 17.9332 188.373 17.9332 188.62 17.9332C188.783 17.9332 188.865 17.9332 189.029 17.8528C189.193 17.8528 189.275 17.773 189.357 17.6926L189.439 17.5317H188.948ZM192.391 17.5317H193.047L192.883 16.8903L192.391 17.5317ZM191.571 18.1738L192.883 16.4894H193.047L193.538 18.1738H193.211L193.129 17.6932H192.227L191.899 18.1738H191.571ZM195.671 18.1738L196.161 16.4894H196.325L196.817 17.4519L197.72 16.4894H197.965L197.556 18.1738H197.228L197.556 16.9707L196.654 17.8528L196.244 16.9707L195.916 18.1738H195.67H195.671ZM200.015 18.1738L200.506 16.4894H200.752L200.343 18.1738H200.015ZM202.803 18.1738L203.294 16.4894H203.458L204.196 17.6128L204.524 16.4888H204.77L204.36 18.1745H204.196L203.376 16.9714L203.131 18.1738H202.803ZM208.131 17.5317L208.213 17.2917H208.951L208.787 17.7723C208.705 17.9332 208.541 18.013 208.296 18.0941C208.131 18.1738 207.967 18.1738 207.721 18.1738C207.393 18.1738 207.229 18.0941 207.065 17.9332C206.901 17.773 206.819 17.6128 206.901 17.2917C206.983 17.0505 207.147 16.8105 207.393 16.6503C207.639 16.4894 207.885 16.409 208.213 16.409C208.459 16.409 208.623 16.4894 208.705 16.4894C208.869 16.5692 208.951 16.7301 209.033 16.8105L208.787 16.9707L208.541 16.7301C208.459 16.7301 208.295 16.6503 208.131 16.6503C207.913 16.6436 207.703 16.7314 207.557 16.8896C207.311 16.9707 207.229 17.1315 207.148 17.2917C207.148 17.5317 207.148 17.6128 207.312 17.7723C207.393 17.9332 207.557 17.9332 207.802 17.9332C207.967 17.9332 208.131 17.9332 208.213 17.8528C208.377 17.8528 208.459 17.773 208.541 17.6926L208.623 17.5317H208.131ZM174.437 16.169C174.764 16.169 175.011 16.4894 174.929 16.8105V16.8903C175.256 16.9707 175.42 17.2113 175.339 17.5317C175.256 17.9332 174.847 18.1738 174.519 18.1738C174.273 18.1738 174.027 18.013 174.027 17.773C173.863 18.013 173.535 18.1738 173.289 18.1738C172.961 18.1738 172.714 17.9332 172.797 17.5317C172.879 17.2113 173.207 16.97 173.616 16.8903V16.8105C173.699 16.4894 174.108 16.169 174.437 16.169ZM174.109 18.5753L173.945 17.9332L173.535 18.5753H174.11H174.109ZM184.931 16.169C185.095 16.169 185.914 16.9707 185.751 17.5317C185.668 17.9332 185.34 18.1738 184.931 18.1738C184.685 18.1738 184.521 18.013 184.439 17.773C184.275 18.013 184.029 18.1738 183.783 18.1738C183.373 18.1738 183.127 17.9332 183.291 17.5317C183.455 16.8903 184.684 16.169 184.931 16.169ZM184.521 18.5753L184.439 17.9332L183.947 18.5753H184.521H184.521ZM179.11 18.4145C178.781 18.4145 177.962 17.6128 178.126 16.8903C178.208 16.5692 178.618 16.2488 179.028 16.2488C179.356 16.2488 179.518 16.4083 179.518 16.6503C179.765 16.409 180.012 16.2488 180.339 16.2488C180.668 16.2488 180.914 16.5692 180.831 16.8903C180.668 17.6926 179.356 18.4145 179.109 18.4145H179.11H179.11ZM169.435 16.169C169.681 16.649 169.926 16.9707 170.337 17.3715C169.762 17.6926 169.353 18.013 168.861 18.4949C168.615 18.0143 168.369 17.6926 167.959 17.3715C168.533 16.9707 168.943 16.6503 169.435 16.1684L169.435 16.169ZM186.98 4.69794H188.291L185.832 13.8412H187.062L189.441 4.69927H190.752L191.162 3.1744H187.391L186.981 4.69927L186.98 4.69794ZM181.077 4.69794H183.208L183.619 3.17373H180.257L177.47 13.8412H180.749L181.16 12.3176H179.028L179.929 9.19012H181.569L181.979 7.66525H180.339L181.078 4.6986L181.077 4.69794ZM174.109 4.69794C174.519 4.69794 174.601 5.019 174.437 5.74022L174.272 6.38234C174.027 7.184 173.698 7.50572 173.207 7.50572H172.715L173.453 4.69794H174.109ZM172.879 9.03059C173.454 9.03059 173.535 9.35099 173.289 10.3135L173.043 11.2754C172.879 12.0777 172.551 12.3176 172.141 12.3176H171.485L172.305 9.03059H172.879ZM174.519 3.17573H172.715L169.845 13.8432H171.731C172.961 13.8432 173.781 12.9604 174.272 11.2754L174.518 10.3933C174.764 9.27055 174.764 8.46824 174.191 8.14784C174.847 7.74701 175.256 7.10556 175.585 5.98151L175.667 5.58069C176.077 3.97672 175.748 3.1744 174.518 3.1744V3.17573H174.519Z" fill="white"/>
<path d="M463.74 6.12571C464.378 6.12571 464.908 5.60856 464.908 4.98505C464.908 4.01123 465.781 3.58514 466.654 3.58514H466.716C467.589 3.58514 468.462 4.01057 468.462 4.98505C468.462 5.60856 468.992 6.12571 469.631 6.12571C470.27 6.12571 470.816 5.60856 470.816 4.98505C470.816 2.85461 469.101 1.30249 466.732 1.30249H466.67C464.285 1.30315 462.57 2.83999 462.57 4.98571C462.57 5.60922 463.085 6.12637 463.74 6.12637V6.12571ZM470.816 13.1997C470.816 12.5762 470.285 12.059 469.646 12.059C469.007 12.059 468.478 12.5609 468.478 13.2003C468.478 14.1742 467.605 14.5996 466.732 14.5996H466.67C465.797 14.5996 464.924 14.1742 464.924 13.2003C464.924 12.5762 464.394 12.059 463.755 12.059C463.116 12.059 462.57 12.5609 462.57 13.2003C462.57 15.3301 464.285 16.8816 466.654 16.8816H466.716C467.029 16.8816 467.34 16.8517 467.62 16.8058L468.649 18.768C468.851 19.1489 469.491 19.24 470.052 18.9508C470.628 18.6617 470.925 18.114 470.722 17.7344L469.725 15.7715C470.41 15.1167 470.815 14.2194 470.815 13.2003L470.816 13.1997Z" fill="white"/>
<path d="M464.893 12.0743V6.11042C464.596 6.39957 464.192 6.58237 463.724 6.58237C463.256 6.58237 462.836 6.38429 462.539 6.07984V12.0889C462.836 11.7851 463.256 11.5877 463.724 11.5877C464.192 11.603 464.596 11.7699 464.893 12.0743ZM468.462 6.08051V12.0896C468.758 11.7851 469.179 11.5877 469.646 11.5877C470.098 11.5877 470.504 11.7699 470.8 12.0597V6.11042C470.504 6.39957 470.098 6.58237 469.631 6.58237C469.179 6.58237 468.758 6.38429 468.462 6.07984V6.08051ZM488.926 6.12571C489.565 6.12571 490.094 5.60856 490.094 4.98505C490.094 4.01123 490.967 3.58514 491.84 3.58514H491.902C492.775 3.58514 493.648 4.01057 493.648 4.98505C493.648 5.60856 494.178 6.12571 494.817 6.12571C495.456 6.12571 495.986 5.60856 495.986 4.98505C495.986 2.85461 494.272 1.30249 491.902 1.30249H491.84C489.472 1.30249 487.757 2.85461 487.757 4.98505C487.757 5.60856 488.271 6.12571 488.926 6.12571ZM494.833 12.059C494.194 12.059 493.664 12.5762 493.664 13.2003C493.664 14.1742 492.791 14.5996 491.918 14.5996H491.856C490.983 14.5996 490.11 14.1742 490.11 13.2003C490.11 12.5762 489.581 12.059 488.941 12.059C488.302 12.059 487.773 12.5762 487.773 13.2003C487.773 15.3301 489.487 16.8816 491.856 16.8816H491.918C494.287 16.8816 496.002 15.3301 496.002 13.2003C496.002 12.5609 495.472 12.059 494.833 12.059Z" fill="white"/>
<path d="M490.079 12.0749V6.11103C489.783 6.40018 489.378 6.58298 488.91 6.58298C488.443 6.58298 488.022 6.3849 487.726 6.08045V12.0895C488.022 11.7858 488.443 11.5883 488.91 11.5883C489.378 11.6036 489.783 11.7858 490.079 12.0749ZM508.252 6.12632C508.891 6.12632 509.421 5.60917 509.421 4.98566C509.421 4.01184 510.294 3.58575 511.166 3.58575H511.229C512.102 3.58575 512.974 4.01118 512.974 4.98566C512.974 5.60917 513.504 6.12632 514.144 6.12632C514.782 6.12632 515.312 5.60917 515.312 4.98566C515.312 2.85522 513.598 1.3031 511.229 1.3031H511.166C508.797 1.3031 507.083 2.85522 507.083 4.98566C507.083 5.60917 507.613 6.12632 508.252 6.12632Z" fill="white"/>
<path d="M509.141 6.55243C508.75 6.79572 508.267 6.8263 507.831 6.68937L512.46 12.8354C512.522 12.3947 512.756 11.9839 513.161 11.7399C513.551 11.5119 514.003 11.4661 514.439 11.5884L509.826 5.48755C509.763 5.92892 509.529 6.32443 509.14 6.55243H509.141Z" fill="white"/>
<path d="M514.16 12.0596C513.52 12.0596 512.99 12.5768 512.99 13.201C512.99 14.1748 512.118 14.6002 511.245 14.6002H511.182C510.309 14.6002 509.437 14.1748 509.437 13.201C509.437 12.5768 508.907 12.0596 508.267 12.0596C507.629 12.0596 507.099 12.5768 507.099 13.201C507.099 15.3307 508.813 16.8822 511.182 16.8822H511.245C513.614 16.8822 515.328 15.3307 515.328 13.201C515.328 12.5615 514.798 12.0596 514.159 12.0596H514.16ZM479.918 12.0596C479.278 12.0596 478.749 12.5768 478.749 13.201C478.749 14.1748 477.876 14.6002 477.003 14.6002H476.94C476.068 14.6002 475.179 14.1595 475.179 13.201C475.179 12.5768 474.65 12.0596 474.01 12.0596C473.372 12.0596 472.842 12.5615 472.842 13.201C472.842 15.3307 474.556 16.8822 476.925 16.8822H476.988C479.357 16.8822 481.071 15.3307 481.071 13.201C481.086 12.5615 480.573 12.0596 479.918 12.0596ZM479.918 1.30377C479.278 1.30377 478.749 1.82093 478.749 2.44443V12.0443C479.045 11.7399 479.466 11.5425 479.933 11.5425C480.385 11.5425 480.791 11.7253 481.086 12.0144V2.44377C481.086 1.80564 480.557 1.30311 479.918 1.30311V1.30377ZM475.195 12.0138V2.4451C475.195 1.82159 474.665 1.30444 474.026 1.30444C473.387 1.30444 472.842 1.8063 472.842 2.4451V12.045C473.138 11.7406 473.558 11.5431 474.026 11.5431C474.478 11.5431 474.899 11.7259 475.195 12.0151V12.0138ZM485.606 6.71926V2.4451C485.606 1.82159 485.076 1.30444 484.437 1.30444C483.798 1.30444 483.269 1.82159 483.269 2.4451V15.7422C483.269 16.3657 483.798 16.8828 484.437 16.8828C485.076 16.8828 485.606 16.3657 485.606 15.7422V6.71926ZM529.043 6.73521V2.44443C529.043 1.82093 528.513 1.30377 527.874 1.30377C527.235 1.30377 526.705 1.82093 526.705 2.44443V15.7415C526.705 16.365 527.235 16.8822 527.874 16.8822C528.513 16.8822 529.043 16.365 529.043 15.7415V6.73521ZM533.267 8.40831L532.8 7.48036L532.223 6.33904L530.929 3.78318V15.7415C530.929 16.365 531.459 16.8822 532.098 16.8822C532.737 16.8822 533.267 16.365 533.267 15.7415V8.40765V8.40831ZM537.677 10.9037L535.324 6.24797L534.763 5.13789L533.173 2.03364C532.861 1.41013 532.13 1.13626 531.553 1.41013C530.976 1.68399 530.758 2.42915 531.069 3.03803L532.628 6.12633L533.204 7.26765L535.636 12.0443L537.709 16.137C538.021 16.7605 538.753 17.0344 539.33 16.7605C539.906 16.4867 540.124 15.7415 539.812 15.1326L537.677 10.9037ZM540 11.4514V2.44443C540 1.82093 539.47 1.30377 538.831 1.30377C538.193 1.30377 537.662 1.82093 537.662 2.44443V9.85408L538.099 10.7209L540 14.4785V11.4521V11.4514ZM499.617 7.58672L497.623 10.4011C497.327 10.8272 497.514 11.466 498.043 11.8316C498.573 12.1813 499.26 12.1361 499.556 11.71L501.613 8.80382L503.873 5.59388L504.418 4.81815L505.93 2.6731C506.226 2.24701 506.039 1.60822 505.509 1.24262C504.979 0.892975 504.293 0.938841 503.997 1.36426L502.5 3.49536L501.955 4.27109L499.617 7.58805L499.617 7.58672ZM504.839 13.0182L503.327 10.1273L502.968 9.428L502.454 8.43889L502.018 9.0624L500.942 10.5846L501.255 11.1775L502.813 14.1595L504.153 16.7C504.356 17.0803 504.994 17.172 505.555 16.8822C506.132 16.5937 506.429 16.046 506.226 15.6657L504.839 13.0182ZM499.82 6.50655V2.36866C499.82 1.74515 499.29 1.22733 498.652 1.22733C498.012 1.22733 497.467 1.74515 497.467 2.36866V9.82351L499.229 7.32814L499.82 6.50655Z" fill="white"/>
<path d="M497.778 12.2119C497.669 12.1361 497.56 12.0443 497.466 11.9526V15.6651C497.466 16.2893 497.996 16.8064 498.636 16.8064C499.274 16.8064 499.804 16.2893 499.804 15.6651V12.1208C499.555 12.3794 499.181 12.5316 498.775 12.5316C498.432 12.5316 498.074 12.4099 497.778 12.2119ZM522.092 1.19742L522.107 1.18213H517.992C517.431 1.18213 516.964 1.62284 516.964 2.35337C516.964 3.0839 517.431 3.52461 517.992 3.52461H521.811C522.637 3.58576 522.996 4.69651 522.996 5.65504V5.74611C522.996 6.70463 522.622 7.96694 521.811 8.02809H517.992C517.431 8.02809 516.964 8.46947 516.964 9.19933C516.964 9.92986 517.431 10.3712 517.992 10.3712H522.123C522.123 10.3559 522.107 10.3559 522.107 10.3407C523.837 10.1127 525.068 8.24081 525.068 5.73082V5.65504C525.068 3.14439 523.837 1.42542 522.092 1.19742ZM519.317 10.8425H517.992C517.587 10.8425 517.229 10.6903 516.964 10.4317V15.7415C516.964 16.365 517.494 16.8822 518.133 16.8822C518.771 16.8822 519.302 16.365 519.302 15.7415V10.8425H519.317Z" fill="white"/>
<path d="M519.318 7.57136V3.99649H517.993C517.588 3.99649 517.229 3.84427 516.965 3.58569V7.98216C517.229 7.72358 517.572 7.57136 517.993 7.57136H519.318Z" fill="white"/>
<path d="M382.616 6.59935L378.025 6.74759C377.951 6.74759 377.876 6.79212 377.816 6.83599C377.756 6.89582 377.741 6.96894 377.741 7.05801L377.831 8.30104C377.846 8.44927 377.981 8.58222 378.13 8.56759L379.387 8.55297L379.67 14.368C379.67 14.4424 379.715 14.5162 379.775 14.5753C379.835 14.6352 379.91 14.6491 379.984 14.6491L381.39 14.5607C381.554 14.5461 381.674 14.4125 381.659 14.2649L381.494 8.53768L382.735 8.52306C382.811 8.52306 382.885 8.49381 382.945 8.43465C383.005 8.37482 383.035 8.30171 383.02 8.21263L382.93 6.89515C382.915 6.70305 382.781 6.58473 382.616 6.59935ZM387.969 6.9696L386.578 6.89515C386.414 6.89515 386.294 7.01414 386.279 7.17633L386.264 10.2101L385.666 10.3431L385.517 6.89515C385.517 6.73296 385.382 6.61398 385.233 6.61398L383.857 6.64389C383.782 6.64389 383.707 6.67314 383.647 6.73296C383.588 6.79212 383.558 6.86591 383.558 6.93969L383.812 14.5906C383.812 14.7528 383.947 14.8711 384.111 14.8711L385.487 14.8419C385.562 14.8419 385.636 14.812 385.696 14.7528C385.756 14.6937 385.786 14.6199 385.786 14.5461L385.636 11.9856L386.175 12.0301L386.264 14.3234C386.264 14.3979 386.294 14.4869 386.34 14.5308C386.399 14.5906 386.474 14.6199 386.548 14.6199L387.984 14.7236H387.999C388.148 14.7083 388.268 14.5906 388.283 14.4424V7.2654C388.283 7.19162 388.253 7.11717 388.208 7.05801C388.134 6.99885 388.044 6.9696 387.969 6.9696H387.969ZM393.128 6.3328L391.857 6.42187C391.707 6.4365 391.588 6.55482 391.588 6.71767C391.588 6.71767 391.603 11.5123 391.588 12.1338C391.573 12.5041 391.633 13.1249 391.214 13.1548C390.93 13.1695 390.825 12.7553 390.825 12.1777C390.825 11.5269 390.87 7.07264 390.87 7.02876C390.87 6.88053 390.765 6.74759 390.601 6.73296L389.165 6.58473C389.076 6.57011 389.001 6.59935 388.941 6.65851C388.881 6.71834 388.836 6.79146 388.852 6.88053C388.852 6.88053 388.911 12.4888 388.911 12.6962C388.926 13.4207 389.494 14.7236 391.094 14.679C392.889 14.6345 393.203 13.5842 393.322 12.3412C393.367 11.8227 393.457 7.14708 393.457 6.62927C393.457 6.54019 393.427 6.46641 393.367 6.40725C393.293 6.34742 393.203 6.31818 393.128 6.3328ZM398.691 6.62927L397.375 6.68843C397.3 6.68843 397.225 6.73296 397.165 6.79212C397.121 6.85128 397.091 6.92507 397.091 6.99885L397.315 10.595L395.954 6.88053C395.91 6.76221 395.775 6.67314 395.64 6.68776L394.324 6.83599C394.175 6.85128 394.055 6.98423 394.055 7.13246L394.28 14.2204C394.28 14.368 394.399 14.5016 394.548 14.5162L395.864 14.6053C395.954 14.6053 396.029 14.5753 396.089 14.5162C396.149 14.457 396.178 14.3832 396.178 14.2942L395.969 11.1866L397.106 14.4125C397.151 14.5162 397.255 14.59 397.36 14.6053H398.78C398.855 14.6053 398.915 14.5753 398.975 14.5308C399.034 14.4716 399.064 14.3979 399.064 14.3088L398.975 6.91044C398.975 6.83599 398.945 6.76221 398.885 6.70305C398.84 6.65851 398.765 6.62927 398.691 6.62927ZM400.44 6.48103H400.156C400.006 6.48103 399.872 6.61398 399.872 6.76221L399.633 14.1313C399.633 14.2942 399.752 14.4125 399.902 14.4278C399.902 14.4278 400.081 14.4424 400.335 14.4424C401.263 14.4424 403.461 14.2795 403.969 12.7407C404.388 11.4678 404.328 9.72155 404.223 8.89331C404.029 7.2654 402.787 6.48103 400.44 6.48103ZM402.415 11.3348C402.25 12.5779 401.861 12.6516 401.427 12.7999L401.636 8.18272C401.786 8.22726 401.98 8.21263 402.22 8.53768C402.563 8.99634 402.563 10.121 402.414 11.3348H402.415ZM408.545 13.1402L406.825 13.2732L406.75 11.6752L407.872 11.6153C408.021 11.6014 408.126 11.4977 408.141 11.3495L408.245 10.3723C408.261 10.2839 408.231 10.1955 408.171 10.1363C408.111 10.0765 408.021 10.0473 407.946 10.0473L406.735 10.1071V8.37549H408.53C408.694 8.37549 408.829 8.24255 408.829 8.07902C408.829 8.04978 408.829 8.03515 408.814 8.01986L408.709 6.98423C408.694 6.83599 408.56 6.71834 408.41 6.71834L405.135 6.79146C404.971 6.79146 404.851 6.9244 404.851 7.08792L404.956 14.368C404.956 14.5308 405.091 14.6491 405.255 14.6491H408.574C408.739 14.6491 408.859 14.5162 408.874 14.368L408.904 13.4214C408.904 13.3323 408.874 13.2585 408.814 13.1994C408.709 13.1548 408.62 13.1249 408.545 13.1395V13.1402ZM413.898 8.86339C413.823 7.84238 413.464 6.48103 411.221 6.48103C410.743 6.48103 410.174 6.54086 409.546 6.65851C409.412 6.68843 409.307 6.80675 409.307 6.95431L409.412 14.0722C409.412 14.2204 409.532 14.3533 409.681 14.3533L410.713 14.4278C410.787 14.4424 410.877 14.4125 410.937 14.3533C410.997 14.2942 411.027 14.2204 411.027 14.1466V11.8526L411.55 11.8227L412.133 14.2795C412.163 14.4125 412.283 14.5162 412.417 14.5162H412.447L413.479 14.4424C413.569 14.4424 413.644 14.3979 413.689 14.3241C413.733 14.2643 413.763 14.1758 413.749 14.0868L413.015 11.3495C413.524 10.9799 414.003 10.2839 413.898 8.86339ZM412.029 9.86978C411.76 10.151 411.311 10.24 411.012 10.2547V8.15347C411.102 8.13818 411.206 8.12356 411.296 8.12356C411.685 8.12356 412.179 8.30104 412.238 9.12995C412.268 9.45566 412.209 9.6923 412.029 9.86978ZM417.831 10.95C418.264 10.3876 419.341 9.10004 419.221 6.85128C419.221 6.77683 419.176 6.70305 419.116 6.64389C419.056 6.59935 418.982 6.57011 418.907 6.57011L417.681 6.64389C417.516 6.65851 417.397 6.79212 417.412 6.95431C417.456 7.59112 417.023 8.95247 416.41 9.81062L416.5 7.02876C416.5 6.95432 416.47 6.86591 416.41 6.82137C416.35 6.76221 416.275 6.73296 416.201 6.73296L414.615 6.76221C414.541 6.76221 414.466 6.79212 414.406 6.85128C414.346 6.91044 414.316 6.98423 414.332 7.05801L414.496 14.4278C414.496 14.5162 414.541 14.59 414.601 14.6491C414.661 14.709 414.75 14.7236 414.825 14.7236L416.051 14.5607C416.201 14.5461 416.305 14.4125 416.305 14.2795L416.32 12.1192C416.574 12.2668 417.307 13.3177 417.427 14.3533C417.442 14.5016 417.576 14.6192 417.726 14.6053H419.042C419.116 14.6053 419.176 14.5753 419.236 14.5162C419.296 14.457 419.326 14.3832 419.326 14.3088C419.311 14.0429 418.877 11.7789 417.83 10.95H417.831ZM421.509 6.42187L420.103 6.59935C419.954 6.61398 419.849 6.74759 419.849 6.88053L419.834 14.1027C419.834 14.1765 419.863 14.2656 419.923 14.3095C419.983 14.3693 420.058 14.3839 420.133 14.3839H420.148L421.673 14.2656C421.822 14.2503 421.942 14.1326 421.942 13.9691L421.838 6.6738C421.838 6.58539 421.792 6.51161 421.733 6.45245C421.673 6.43716 421.598 6.40791 421.509 6.42254L421.509 6.42187ZM424.5 6.62927C424.081 6.65851 422.675 6.91044 422.556 8.93718L422.511 9.67768C422.421 11.0683 422.361 12.06 422.541 12.9328C422.645 13.4513 423.094 14.6491 424.814 14.6491C424.919 14.6491 425.038 14.6491 425.143 14.6345C425.861 14.5753 426.399 14.3533 426.743 13.9538C427.221 13.3915 427.146 12.6816 427.116 12.2967V12.2229C427.102 12.06 426.967 11.9417 426.817 11.9563L425.726 12.0009C425.636 12.0009 425.561 12.0448 425.516 12.1039C425.456 12.1637 425.442 12.2521 425.456 12.3412C425.486 12.4888 425.502 12.9474 425.307 13.1695C425.262 13.2293 425.173 13.3024 424.963 13.3024H424.949C424.784 13.3024 424.679 13.2585 424.574 13.1548C424.41 12.992 424.231 12.5779 424.29 11.5861C424.305 11.3495 424.32 11.0829 424.32 10.8017C424.35 10.0619 424.38 9.21836 424.455 8.68591V8.67129C424.515 8.27179 424.59 8.09431 424.919 8.07969C425.158 8.0644 425.337 8.12356 425.427 8.22726C425.546 8.3602 425.532 8.59684 425.516 8.67129C425.502 8.7597 425.516 8.84877 425.576 8.90793C425.636 8.98172 425.711 9.01163 425.801 9.01163L427.117 9.02625C427.281 9.02625 427.416 8.90793 427.416 8.74507C427.416 8.71583 427.445 7.91617 426.832 7.29465C426.324 6.79212 425.532 6.55482 424.499 6.62927H424.5ZM433.262 14.013C433.248 13.9246 432.679 11.7197 431.513 10.6694C432.081 10.1363 433.232 9.1007 432.843 6.71767C432.814 6.57011 432.679 6.45179 432.514 6.48103L430.99 6.64389C430.914 6.65851 430.84 6.68843 430.78 6.76221C430.735 6.82204 430.705 6.91044 430.72 6.98423C430.72 7.01414 431.034 8.73045 429.853 9.75146L429.883 6.82137C429.883 6.73296 429.853 6.65851 429.778 6.59935C429.719 6.54019 429.629 6.51095 429.554 6.52557L428.058 6.71834C427.909 6.73296 427.79 6.86591 427.79 7.01414L427.969 14.3387C427.969 14.4278 428.014 14.5016 428.073 14.5461C428.133 14.59 428.208 14.6192 428.283 14.6192H428.298L429.584 14.4716C429.733 14.457 429.838 14.3387 429.838 14.1905L429.943 11.8972C430.346 12.3113 431.034 13.3769 431.139 14.2795C431.154 14.4424 431.303 14.5454 431.468 14.5308L432.993 14.368C433.083 14.3533 433.158 14.3088 433.202 14.2496C433.262 14.1765 433.277 14.1021 433.262 14.013ZM376.575 13.5397L377.188 9.30743L374.631 3.99498L372.896 4.58658L370.623 2.17497L366.601 0L365.719 3.2106L365.106 1.52421L362.025 4.51279L360.29 7.48742L360.216 10.5804L359.005 10.018L359.827 14.9748L361.712 18.1562L366.137 19.6658L369.771 19.7987L376.036 17.5347L377.831 13.1249L376.575 13.5397ZM373.868 11.1866L370.324 11.2757L370.19 15.2268L369.995 17.5646L366.9 17.5347V15.3006L366.646 11.3787L362.937 11.5422L362.803 7.75331L368.276 7.70944L373.928 7.54658L374.018 8.04978L373.868 11.1873V11.1866Z" fill="white"/>
<path d="M43.3859 4.84684H50.6447V6.88753H48.1121V15.5435H45.9179V6.88819H43.3853V4.84684H43.3859ZM34.0167 4.84684H35.9577L40.2618 11.3791V4.84684H42.456V15.5435H40.515L36.2103 9.01131V15.5435H34.0154V4.84684H34.016H34.0167ZM27.0949 4.84684H32.8342V6.88753H27.7703V9.1755H32.0744V11.2162H27.7703V13.5028H32.8342V15.5442H27.0949V19.1364H26.6729V1.0094H27.0949V4.84684Z" fill="#CCCCCC"/>
<path d="M9.62251 4.8468H16.8813V6.8875H11.9025V9.17547H16.2059V11.2162H11.9018V13.5028H16.8819V15.5442H9.62251V4.8468ZM0 4.8468H2.02607L6.24705 11.379V4.8468H8.44063V15.5435H6.49965L2.19358 9.01128V15.5435H0V4.8468ZM17.8956 4.8468H25.1544V6.8875H22.6218V15.5435H20.4269V6.88816H17.8943V4.8468H17.8956Z" fill="white"/>
<path d="M258.948 9.99111C260.017 10.3713 261.14 10.5854 262.277 10.6259C262.244 11.3611 262.113 12.0896 261.887 12.7916C258.489 12.5875 255.301 11.1098 252.987 8.66765C252.625 9.00334 252.282 9.33902 251.911 9.65609C250.126 11.183 247.945 12.1993 245.607 12.5922C245.172 12.6653 244.726 12.7105 244.291 12.765C244.143 12.765 244.077 12.765 244.04 12.5922C243.863 11.962 243.754 11.3146 243.716 10.6618C244.291 10.5801 244.856 10.5262 245.403 10.4265C245.95 10.3268 246.497 10.1633 247.091 10.0184C246.146 9.23732 245.057 8.6404 243.883 8.26018C244.018 7.55491 244.246 6.86958 244.56 6.22081C245.437 6.48006 246.27 6.86227 247.035 7.3535C247.796 7.82545 248.51 8.36853 249.279 8.91294C250.021 8.44098 250.7 7.88062 251.3 7.24449C249.173 6.86559 247.235 5.81201 245.783 4.24593L247.425 2.74033C248.256 3.65964 249.307 4.36358 250.485 4.789C250.41 4.59823 250.354 4.43537 250.299 4.28116C249.991 3.4569 249.773 2.6034 249.65 1.73461C249.65 1.6708 249.65 1.55314 249.724 1.53519C250.386 1.28061 251.078 1.10379 251.782 1.0094C251.927 2.3774 252.336 3.70617 252.987 4.92461C253.653 3.71016 254.072 2.38005 254.22 1.0094C254.609 1.09116 254.989 1.16361 255.351 1.25402C255.713 1.34442 255.898 1.41754 256.176 1.48999C256.455 1.56245 256.38 1.6256 256.352 1.77981C256.201 2.70843 255.953 3.61976 255.61 4.49852L255.518 4.75245C256.674 4.35893 257.714 3.6962 258.549 2.82209C259.154 3.23954 259.705 3.72612 260.191 4.27252C258.744 5.82464 256.815 6.86892 254.702 7.24515C255.326 7.89791 256.03 8.47356 256.798 8.95814C258.11 7.7171 259.696 6.78649 261.433 6.23943C261.747 6.88288 261.98 7.56156 262.128 8.26018C260.965 8.63442 259.886 9.22203 258.948 9.99111Z" fill="white"/>
<path d="M252.987 13.9063L255.277 10.9789L257.243 12.0305C256.789 12.6108 256.315 13.1997 255.871 13.7794L254.22 15.9005C254.152 15.9962 254.114 16.1099 254.109 16.2262V19.1363H251.902V18.8731V16.2541C251.9 16.1298 251.857 16.0095 251.783 15.9098L248.843 12.1568L248.759 12.0478L250.724 10.9782L252.986 13.9057L252.987 13.9063ZM290.535 7.20859H293.576C295.557 7.25312 297.184 8.75473 297.342 10.6864C297.499 12.6181 296.137 14.353 294.188 14.704C293.734 14.7705 293.275 14.801 292.816 14.7951H290.572L290.535 7.20859ZM292.25 13.2994H293.177C293.367 13.2948 293.556 13.2768 293.742 13.2449C294.835 13.0369 295.596 12.0637 295.514 10.9789C295.546 9.99643 294.894 9.11634 293.929 8.83981C293.376 8.73412 292.812 8.70022 292.25 8.7401V13.2994ZM304.831 14.813H302.903C302.847 14.813 302.773 14.7312 302.727 14.6681C302.3 14.0512 301.874 13.4264 301.457 12.8002C301.28 12.5476 301.141 12.2571 300.724 12.4014V10.8978H301.346C301.595 10.8931 301.843 10.8659 302.087 10.816C302.61 10.6984 302.946 10.1985 302.847 9.68268C302.848 9.20275 302.466 8.80525 301.976 8.77666C301.373 8.72216 300.752 8.77666 300.122 8.77666V14.8037H298.415V7.22653H302.041C302.635 7.22786 303.213 7.41531 303.691 7.76163C304.385 8.27347 304.74 9.11368 304.618 9.95522C304.588 10.9058 303.967 11.7433 303.051 12.0664L302.967 12.1209L304.831 14.813H304.831ZM280.421 8.10596L279.336 9.39286C279.15 9.26656 278.974 9.13894 278.789 9.03059C277.986 8.47754 276.917 8.46823 276.103 9.00533C275.29 9.54309 274.902 10.5162 275.126 11.4502C275.207 12.3522 275.868 13.1033 276.768 13.3174C277.463 13.5008 278.204 13.4131 278.835 13.0728C278.964 13.0262 279.042 12.8973 279.02 12.7643V12.1754H278.223V10.8705H280.671C280.675 10.9304 280.675 10.9915 280.671 11.0513V13.562C280.671 13.6517 280.638 13.7388 280.578 13.8066C279.266 14.9499 277.419 15.2982 275.766 14.7133C274.392 14.2367 273.43 13.0163 273.31 11.5957C273.084 10.0104 273.86 8.44896 275.275 7.64398C276.884 6.80045 278.85 6.97128 280.281 8.07871L280.421 8.10596ZM288.922 8.10596L287.828 9.40217L287.42 9.10304C286.849 8.69756 286.131 8.54002 285.436 8.66765C284.435 8.84646 283.677 9.65343 283.582 10.6439C283.45 11.4495 283.726 12.2671 284.323 12.8374C285.195 13.5274 286.416 13.6072 287.374 13.0369C287.434 12.997 287.474 12.9345 287.485 12.864V12.1754H286.687V10.8612H289.145V13.5534C289.149 13.6531 289.109 13.7488 289.034 13.8159C287.668 14.9812 285.745 15.2863 284.073 14.6043C282.771 14.1097 281.882 12.9219 281.793 11.5592C281.524 10.0051 282.261 8.44896 283.647 7.64398C284.483 7.15674 285.465 6.96463 286.428 7.10024C287.275 7.16073 288.082 7.4778 288.736 8.00625L288.923 8.10596H288.922ZM313.565 14.8489H312.322C311.766 14.8489 311.766 14.8489 311.544 14.3324C311.404 13.9974 311.256 13.6531 311.117 13.3087C311.094 13.1851 310.975 13.1013 310.848 13.118H308.456C308.651 12.6287 308.836 12.2119 309.04 11.7041C309.098 11.6503 309.174 11.621 309.253 11.6223H310.468L309.439 9.23865L309.337 9.42942L307.186 14.6043C307.158 14.7618 307.004 14.8675 306.843 14.8403H305.341L305.527 14.3869C306.546 12.0544 307.575 9.70993 308.614 7.35416C308.647 7.2139 308.784 7.12284 308.929 7.14544H310.06C310.202 7.12217 310.339 7.20859 310.375 7.34485C311.358 9.62884 312.35 11.8763 313.333 14.1782C313.38 14.4049 313.463 14.6043 313.564 14.8496L313.565 14.8489ZM319.795 8.03351L318.868 9.28451C318.71 9.1848 318.571 9.09374 318.422 9.01198C317.91 8.69025 317.308 8.52872 316.698 8.54999C316.542 8.56728 316.39 8.60384 316.244 8.65901C316.022 8.73878 315.874 8.94484 315.873 9.1755C315.827 9.41679 315.957 9.65808 316.188 9.7558C316.559 9.90935 316.939 10.0277 317.319 10.1546C317.7 10.2809 318.247 10.4079 318.645 10.5894C319.544 10.8712 320.106 11.742 319.98 12.656C319.97 13.5367 319.395 14.3171 318.543 14.6043C317.287 15.027 315.903 14.8874 314.761 14.2241C314.441 14.0446 314.131 13.8472 313.834 13.6344L314.863 12.42C315.309 12.8002 315.834 13.0814 316.402 13.2449C316.836 13.3626 317.294 13.3626 317.728 13.2449C318.039 13.1937 318.271 12.9365 318.283 12.6287C318.308 12.3376 318.117 12.0717 317.829 11.9939C317.319 11.8218 316.791 11.6768 316.281 11.5047C315.965 11.4156 315.656 11.3066 315.354 11.179C314.486 10.8087 314.014 9.88542 314.232 8.98539C314.394 7.96437 315.247 7.18266 316.299 7.09093C317.474 6.91146 318.672 7.19862 319.628 7.8886L319.758 7.979L319.795 8.03351ZM265.837 7.20859H267.747C267.802 7.20859 267.886 7.29965 267.923 7.37211L269.555 10.3447C269.59 10.4199 269.63 10.4923 269.676 10.5621L270.602 8.91293C270.89 8.38714 271.177 7.87065 271.474 7.3535C271.474 7.29035 271.595 7.20859 271.66 7.20859H273.514L273.383 7.43526C272.457 9.01264 271.529 10.5894 270.658 12.1661C270.586 12.301 270.545 12.4492 270.538 12.6015V14.7951H268.795V13.9974V12.6015C268.792 12.4552 268.754 12.313 268.683 12.1847C267.756 10.5987 266.829 9.01264 265.958 7.42595L265.837 7.20859ZM324.449 7.21789H326.146V13.2722H329.733V14.8037H324.449V7.21789ZM323.012 14.813H321.315V7.21789H323.012V14.813Z" fill="white"/>
</svg>
